<?xml version="1.0" encoding="UTF-8" standalone="no"?>
<!-- Created with Inkscape (http://www.inkscape.org/) -->

<svg
   xmlns:dc="http://purl.org/dc/elements/1.1/"
   xmlns:cc="http://creativecommons.org/ns#"
   xmlns:rdf="http://www.w3.org/1999/02/22-rdf-syntax-ns#"
   xmlns:svg="http://www.w3.org/2000/svg"
   xmlns="http://www.w3.org/2000/svg"
   xmlns:xlink="http://www.w3.org/1999/xlink"
   xmlns:sodipodi="http://sodipodi.sourceforge.net/DTD/sodipodi-0.dtd"
   xmlns:inkscape="http://www.inkscape.org/namespaces/inkscape"
   width="210mm"
   height="297mm"
   viewBox="0 0 210 297"
   version="1.1"
   id="svg8"
   inkscape:version="0.92.3 (11504fc, 2018-09-15)"
   sodipodi:docname="clones.svg">
  <defs
     id="defs2" />
  <sodipodi:namedview
     id="base"
     pagecolor="#ffffff"
     bordercolor="#666666"
     borderopacity="1.0"
     inkscape:pageopacity="0.0"
     inkscape:pageshadow="2"
     inkscape:zoom="1.3"
     inkscape:cx="406.598504148834"
     inkscape:cy="766.456341220375"
     inkscape:document-units="mm"
     inkscape:current-layer="layer1"
     showgrid="false"
     inkscape:window-width="1280"
     inkscape:window-height="964"
     inkscape:window-x="0"
     inkscape:window-y="0"
     inkscape:window-maximized="1" />
  <metadata
     id="metadata5">
    <rdf:RDF>
      <cc:Work
         rdf:about="">
        <dc:format>image/svg+xml</dc:format>
        <dc:type
           rdf:resource="http://purl.org/dc/dcmitype/StillImage" />
        <dc:title></dc:title>
      </cc:Work>
    </rdf:RDF>
  </metadata>
  <g
     inkscape:label="Layer 1"
     inkscape:groupmode="layer"
     id="layer1">
    <rect
       style="fill:#000080;fill-rule:evenodd;stroke-width:0.1899008304"
       id="rect815"
       width="177.964218139648"
       height="144.867202758789"
       x="13.8274145126343"
       y="21.5931739807129" />
    <path
       sodipodi:type="star"
       style="opacity:1;vector-effect:none;fill:#ffcc00;fill-opacity:1;fill-rule:evenodd;stroke:none;stroke-width:0.2019066513;stroke-linecap:round;stroke-linejoin:miter;stroke-miterlimit:4;stroke-dasharray:none;stroke-dashoffset:0;stroke-opacity:1;marker:none;marker-start:none;marker-mid:none;marker-end:none;paint-order:stroke fill markers"
       id="path817"
       sodipodi:sides="5"
       sodipodi:cx="25.9824292510554"
       sodipodi:cy="32.5662871748053"
       sodipodi:r1="6.92424058914185"
       sodipodi:r2="2.96273016929626"
       sodipodi:arg1="1.0471975511966"
       sodipodi:arg2="1.67551608191456"
       inkscape:flatsided="false"
       inkscape:rounded="0"
       inkscape:randomized="0"
       d="m 29.4445497989654,38.5628562464969 -3.7718099262441,-3.0500682286788 -4.3235316723139,2.199213540748 1.7352338972683,-4.5297273252462 -3.4276211311162,-3.4323286120119 4.8442434531869,0.2505427819076 2.2051453127267,-4.3205092835301 1.2586732065803,4.684571280101 4.7904758845139,0.7621070260808 -4.0663406307915,2.6446814919164 z"
       inkscape:transform-center-x="0.208792363056623" />
    <use
       id="use1125"
       x="0"
       y="0"
       width="100%"
       height="100%"
       inkscape:spray-origin="#path817"
       xlink:href="#path817"
       transform="matrix(-0.08042463021211,0.384245371887433,-0.384245371887433,-0.08042463021211,104.366005774171,77.9264046028174)" />
    <use
       id="use1127"
       x="0"
       y="0"
       width="100%"
       height="100%"
       inkscape:spray-origin="#path817"
       xlink:href="#path817"
       transform="matrix(0.126990790167531,-0.032193416335204,0.032193416335204,0.126990790167531,80.7630168364468,66.6468538710208)" />
    <use
       id="use1129"
       x="0"
       y="0"
       width="100%"
       height="100%"
       inkscape:spray-origin="#path817"
       xlink:href="#path817"
       transform="matrix(0.141396781400536,0.194086738661966,-0.194086738661966,0.141396781400536,95.7100571031304,58.8032166829057)" />
    <use
       id="use1131"
       x="0"
       y="0"
       width="100%"
       height="100%"
       inkscape:spray-origin="#path817"
       xlink:href="#path817"
       transform="matrix(0.059639463566002,0.091782579673666,-0.091782579673666,0.059639463566002,76.9745793884476,65.939924407193)" />
    <use
       id="use1133"
       x="0"
       y="0"
       width="100%"
       height="100%"
       inkscape:spray-origin="#path817"
       xlink:href="#path817"
       transform="matrix(0.107303470061128,0.466439852660988,-0.466439852660988,0.107303470061128,74.7135917230604,52.018180986928)" />
    <use
       id="use1135"
       x="0"
       y="0"
       width="100%"
       height="100%"
       inkscape:spray-origin="#path817"
       xlink:href="#path817"
       transform="matrix(0.515425380218114,0.152660946089346,-0.152660946089346,0.515425380218114,57.6371320950521,64.5188359706711)" />
    <use
       id="use1137"
       x="0"
       y="0"
       width="100%"
       height="100%"
       inkscape:spray-origin="#path817"
       xlink:href="#path817"
       transform="matrix(-0.048323931720603,0.31300542187893,-0.31300542187893,-0.048323931720603,68.4733826909609,84.263176719938)" />
    <use
       id="use1139"
       x="0"
       y="0"
       width="100%"
       height="100%"
       inkscape:spray-origin="#path817"
       xlink:href="#path817"
       transform="matrix(0.378100780437968,0.643009857042113,-0.643009857042113,0.378100780437968,73.5437429055278,73.0841533297148)" />
    <use
       id="use1141"
       x="0"
       y="0"
       width="100%"
       height="100%"
       inkscape:spray-origin="#path817"
       xlink:href="#path817"
       transform="matrix(0.360001635396171,-0.592472476836508,0.592472476836508,0.360001635396171,52.5753581619396,110.488232532809)" />
    <use
       id="use1143"
       x="0"
       y="0"
       width="100%"
       height="100%"
       inkscape:spray-origin="#path817"
       xlink:href="#path817"
       transform="matrix(-0.455863246400452,-0.075380085952652,0.075380085952652,-0.455863246400452,109.463161945119,126.421642903126)" />
    <use
       id="use1145"
       x="0"
       y="0"
       width="100%"
       height="100%"
       inkscape:spray-origin="#path817"
       xlink:href="#path817"
       transform="matrix(0.805621019743936,0.247645478917794,-0.247645478917794,0.805621019743936,101.858546655584,81.3551587217425)" />
    <use
       id="use1147"
       x="0"
       y="0"
       width="100%"
       height="100%"
       inkscape:spray-origin="#path817"
       xlink:href="#path817"
       transform="matrix(0.662799750435946,-0.072448638655326,0.072448638655326,0.662799750435946,121.617703574912,90.0433189403805)" />
    <use
       id="use1149"
       x="0"
       y="0"
       width="100%"
       height="100%"
       inkscape:spray-origin="#path817"
       xlink:href="#path817"
       transform="matrix(-0.182823170129296,0.410620390448513,-0.410620390448513,-0.182823170129296,156.95180715599,91.7180549448962)" />
    <use
       id="use1151"
       x="0"
       y="0"
       width="100%"
       height="100%"
       inkscape:spray-origin="#path817"
       xlink:href="#path817"
       transform="matrix(-0.312461041223181,-0.024547397187679,0.024547397187679,-0.312461041223181,147.870284149826,100.26734333294)" />
    <use
       id="use1153"
       x="0"
       y="0"
       width="100%"
       height="100%"
       inkscape:spray-origin="#path817"
       xlink:href="#path817"
       transform="matrix(-0.158571179944567,0.23476052877329,-0.23476052877329,-0.158571179944567,160.146971849574,90.182701272122)" />
    <use
       id="use1155"
       x="0"
       y="0"
       width="100%"
       height="100%"
       inkscape:spray-origin="#path817"
       xlink:href="#path817"
       transform="matrix(-0.237421982298559,-0.039104477649834,0.039104477649834,-0.237421982298559,143.470134555403,86.3477884967282)" />
    <use
       id="use1157"
       x="0"
       y="0"
       width="100%"
       height="100%"
       inkscape:spray-origin="#path817"
       xlink:href="#path817"
       transform="matrix(0.184555641295732,-0.684524536616881,0.684524536616881,0.184555641295732,93.2953912068816,94.2137205031613)" />
    <use
       id="use1159"
       x="0"
       y="0"
       width="100%"
       height="100%"
       inkscape:spray-origin="#path817"
       xlink:href="#path817"
       transform="matrix(-0.126920917471241,-0.22506528775028,0.22506528775028,-0.126920917471241,100.901086064408,85.7633801021059)" />
    <use
       id="use1161"
       x="0"
       y="0"
       width="100%"
       height="100%"
       inkscape:spray-origin="#path817"
       xlink:href="#path817"
       transform="matrix(-0.128349940388126,0.115507489865443,-0.115507489865443,-0.128349940388126,110.737166101334,69.1972818636653)" />
    <use
       id="use1163"
       x="0"
       y="0"
       width="100%"
       height="100%"
       inkscape:spray-origin="#path817"
       xlink:href="#path817"
       transform="matrix(0.171599864326655,-0.331216615887808,0.331216615887808,0.171599864326655,74.0936732362094,54.1787778116265)" />
    <use
       id="use1165"
       x="0"
       y="0"
       width="100%"
       height="100%"
       inkscape:spray-origin="#path817"
       xlink:href="#path817"
       transform="matrix(-0.454260345477516,-0.034199171403683,0.034199171403683,-0.454260345477516,86.3916388499968,62.6970806823495)" />
    <use
       id="use1167"
       x="0"
       y="0"
       width="100%"
       height="100%"
       inkscape:spray-origin="#path817"
       xlink:href="#path817"
       transform="matrix(0.02885459019036,0.237464992371834,-0.237464992371834,0.02885459019036,71.8414979770376,42.2032561837844)" />
    <use
       id="use1169"
       x="0"
       y="0"
       width="100%"
       height="100%"
       inkscape:spray-origin="#path817"
       xlink:href="#path817"
       transform="matrix(-0.069918438497819,-0.574782138139308,0.574782138139308,-0.069918438497819,26.261809240367,82.9347773957361)" />
    <use
       id="use1171"
       x="0"
       y="0"
       width="100%"
       height="100%"
       inkscape:spray-origin="#path817"
       xlink:href="#path817"
       transform="matrix(-0.079809317205477,-0.305307834059752,0.305307834059752,-0.079809317205477,41.1145434956238,84.77318657266)" />
    <use
       id="use1173"
       x="0"
       y="0"
       width="100%"
       height="100%"
       inkscape:spray-origin="#path817"
       xlink:href="#path817"
       transform="matrix(-0.297279930148039,0.0578253233163,-0.0578253233163,-0.297279930148039,46.6339830517311,91.3241862194869)" />
    <use
       id="use1175"
       x="0"
       y="0"
       width="100%"
       height="100%"
       inkscape:spray-origin="#path817"
       xlink:href="#path817"
       transform="matrix(-0.042132028399987,-0.418400285307829,0.418400285307829,-0.042132028399987,28.256537085149,89.1374722445584)" />
    <use
       id="use1177"
       x="0"
       y="0"
       width="100%"
       height="100%"
       inkscape:spray-origin="#path817"
       xlink:href="#path817"
       transform="matrix(-0.528558392069216,0.123185543092992,-0.123185543092992,-0.528558392069216,54.8268873377759,108.544849247788)" />
    <use
       id="use1179"
       x="0"
       y="0"
       width="100%"
       height="100%"
       inkscape:spray-origin="#path817"
       xlink:href="#path817"
       transform="matrix(0.402968076198197,0.159250897014711,-0.159250897014711,0.402968076198197,35.0482294880757,94.8825600066798)" />
    <use
       id="use1181"
       x="0"
       y="0"
       width="100%"
       height="100%"
       inkscape:spray-origin="#path817"
       xlink:href="#path817"
       transform="matrix(-0.332763004183194,0.203873875358772,-0.203873875358772,-0.332763004183194,61.3560081863841,127.770314581925)" />
    <use
       id="use1183"
       x="0"
       y="0"
       width="100%"
       height="100%"
       inkscape:spray-origin="#path817"
       xlink:href="#path817"
       transform="matrix(0.360426540254346,0.014132814302871,-0.014132814302871,0.360426540254346,42.7807408034556,119.565573573468)" />
    <use
       id="use1185"
       x="0"
       y="0"
       width="100%"
       height="100%"
       inkscape:spray-origin="#path817"
       xlink:href="#path817"
       transform="matrix(0.449034736179331,0.005915205315692,-0.005915205315692,0.449034736179331,55.4132617553564,120.938079199703)" />
    <use
       id="use1187"
       x="0"
       y="0"
       width="100%"
       height="100%"
       inkscape:spray-origin="#path817"
       xlink:href="#path817"
       transform="matrix(-0.651083390676873,-0.6640108994376,0.6640108994376,-0.651083390676873,80.4307213051556,175.307681605219)" />
    <use
       id="use1189"
       x="0"
       y="0"
       width="100%"
       height="100%"
       inkscape:spray-origin="#path817"
       xlink:href="#path817"
       transform="matrix(-0.2344489402579,0.590175552171212,-0.590175552171212,-0.2344489402579,65.4412554920381,133.583488828969)" />
    <use
       id="use1191"
       x="0"
       y="0"
       width="100%"
       height="100%"
       inkscape:spray-origin="#path817"
       xlink:href="#path817"
       transform="matrix(-0.015174018050438,-0.334485724947331,0.334485724947331,-0.015174018050438,27.1007338968241,140.87368292383)" />
    <use
       id="use1193"
       x="0"
       y="0"
       width="100%"
       height="100%"
       inkscape:spray-origin="#path817"
       xlink:href="#path817"
       transform="matrix(0.0639014070392,-0.127289739676662,0.127289739676662,0.0639014070392,47.6014949881877,122.128638591006)" />
    <use
       id="use1195"
       x="0"
       y="0"
       width="100%"
       height="100%"
       inkscape:spray-origin="#path817"
       xlink:href="#path817"
       transform="matrix(0.082130363048218,-0.124556162819353,0.124556162819353,0.082130363048218,56.2715293109508,124.599143363142)" />
    <use
       id="use1197"
       x="0"
       y="0"
       width="100%"
       height="100%"
       inkscape:spray-origin="#path817"
       xlink:href="#path817"
       transform="matrix(0.001672644322961,0.214024787702015,-0.214024787702015,0.001672644322961,74.6770455008602,121.762947106019)" />
    <use
       id="use1199"
       x="0"
       y="0"
       width="100%"
       height="100%"
       inkscape:spray-origin="#path817"
       xlink:href="#path817"
       transform="matrix(-0.146754989465321,0.005494928959139,-0.005494928959139,-0.146754989465321,81.4689402894286,125.85209264418)" />
    <use
       id="use1201"
       x="0"
       y="0"
       width="100%"
       height="100%"
       inkscape:spray-origin="#path817"
       xlink:href="#path817"
       transform="matrix(-0.436468427277494,-0.241623731171526,0.241623731171526,-0.436468427277494,97.108310477587,141.014356934755)" />
    <use
       id="use1203"
       x="0"
       y="0"
       width="100%"
       height="100%"
       inkscape:spray-origin="#path817"
       xlink:href="#path817"
       transform="matrix(0.884045798508557,-0.168151397984417,0.168151397984417,0.884045798508557,79.0553349972509,108.303573590973)" />
    <use
       id="use1205"
       x="0"
       y="0"
       width="100%"
       height="100%"
       inkscape:spray-origin="#path817"
       xlink:href="#path817"
       transform="matrix(0.237362360773061,0.045447371736761,-0.045447371736761,0.237362360773061,114.477842735682,118.631555977771)" />
    <use
       id="use1207"
       x="0"
       y="0"
       width="100%"
       height="100%"
       inkscape:spray-origin="#path817"
       xlink:href="#path817"
       transform="matrix(-0.259496186517929,-0.330031565125973,0.330031565125973,-0.259496186517929,119.73922353819,155.565986978287)" />
    <use
       id="use1209"
       x="0"
       y="0"
       width="100%"
       height="100%"
       inkscape:spray-origin="#path817"
       xlink:href="#path817"
       transform="matrix(0.216046229758053,0.130981290188008,-0.130981290188008,0.216046229758053,121.538650113208,136.662338744369)" />
    <use
       id="use1211"
       x="0"
       y="0"
       width="100%"
       height="100%"
       inkscape:spray-origin="#path817"
       xlink:href="#path817"
       transform="matrix(0.146749504522029,-0.187352572921944,0.187352572921944,0.146749504522029,123.127867430876,146.044768475229)" />
    <use
       id="use1213"
       x="0"
       y="0"
       width="100%"
       height="100%"
       inkscape:spray-origin="#path817"
       xlink:href="#path817"
       transform="matrix(-0.334442549657028,-0.570759598695914,0.570759598695914,-0.334442549657028,132.510160545548,172.125573317857)" />
    <use
       id="use1215"
       x="0"
       y="0"
       width="100%"
       height="100%"
       inkscape:spray-origin="#path817"
       xlink:href="#path817"
       transform="matrix(0.551598654896552,0.710164079017992,-0.710164079017992,0.551598654896552,166.205487523941,104.659312413775)" />
    <use
       id="use1217"
       x="0"
       y="0"
       width="100%"
       height="100%"
       inkscape:spray-origin="#path817"
       xlink:href="#path817"
       transform="matrix(-0.153779288445193,-0.254492002868062,0.254492002868062,-0.153779288445193,158.653052395917,141.220125882189)" />
    <use
       id="use1219"
       x="0"
       y="0"
       width="100%"
       height="100%"
       inkscape:spray-origin="#path817"
       xlink:href="#path817"
       transform="matrix(0.690430592209804,-0.060458180676011,0.060458180676011,0.690430592209804,139.155997084193,94.3458881072059)" />
    <use
       id="use1221"
       x="0"
       y="0"
       width="100%"
       height="100%"
       inkscape:spray-origin="#path817"
       xlink:href="#path817"
       transform="matrix(0.106322757894613,0.780222171056683,-0.780222171056683,0.106322757894613,186.656417550627,67.3342621061003)" />
    <use
       id="use1223"
       x="0"
       y="0"
       width="100%"
       height="100%"
       inkscape:spray-origin="#path817"
       xlink:href="#path817"
       transform="matrix(0.650160428069634,0.025755916946091,-0.025755916946091,0.650160428069634,154.3421162736,52.2969175581733)" />
    <use
       id="use1225"
       x="0"
       y="0"
       width="100%"
       height="100%"
       inkscape:spray-origin="#path817"
       xlink:href="#path817"
       transform="matrix(-0.504808162741678,-0.158972982023994,0.158972982023994,-0.504808162741678,169.128605634215,77.2050934692894)" />
    <use
       id="use1227"
       x="0"
       y="0"
       width="100%"
       height="100%"
       inkscape:spray-origin="#path817"
       xlink:href="#path817"
       transform="matrix(0.045694069897383,-0.359569195033961,0.359569195033961,0.045694069897383,150.599898908201,49.6739498515896)" />
    <use
       id="use1229"
       x="0"
       y="0"
       width="100%"
       height="100%"
       inkscape:spray-origin="#path817"
       xlink:href="#path817"
       transform="matrix(-0.166668747062287,0.31598016249494,-0.31598016249494,-0.166668747062287,173.739406085468,28.8314799263579)" />
    <use
       id="use1231"
       x="0"
       y="0"
       width="100%"
       height="100%"
       inkscape:spray-origin="#path817"
       xlink:href="#path817"
       transform="matrix(0.175548172442784,-0.242161924425733,0.242161924425733,0.175548172442784,139.787244845472,41.3139259226791)" />
    <use
       id="use1233"
       x="0"
       y="0"
       width="100%"
       height="100%"
       inkscape:spray-origin="#path817"
       xlink:href="#path817"
       transform="matrix(-0.693989682950559,-0.037403634094559,0.037403634094559,-0.693989682950559,156.456200939988,55.2941498165889)" />
    <use
       id="use1235"
       x="0"
       y="0"
       width="100%"
       height="100%"
       inkscape:spray-origin="#path817"
       xlink:href="#path817"
       transform="matrix(-0.41009818210842,0.761233711865324,-0.761233711865324,-0.41009818210842,156.905235807803,28.3394876031002)" />
    <use
       id="use1237"
       x="0"
       y="0"
       width="100%"
       height="100%"
       inkscape:spray-origin="#path817"
       xlink:href="#path817"
       transform="matrix(0.129803754790565,0.235884290668203,-0.235884290668203,0.129803754790565,116.525143469343,39.4825765762119)" />
    <use
       id="use1239"
       x="0"
       y="0"
       width="100%"
       height="100%"
       inkscape:spray-origin="#path817"
       xlink:href="#path817"
       transform="matrix(0.251678492118398,-0.045021360843683,0.045021360843683,0.251678492118398,113.10395715636,43.699023468066)" />
    <use
       id="use1241"
       x="0"
       y="0"
       width="100%"
       height="100%"
       inkscape:spray-origin="#path817"
       xlink:href="#path817"
       transform="matrix(-0.180824132809908,-0.248926208420679,0.248926208420679,-0.180824132809908,125.449214791772,66.7163598555429)" />
    <use
       id="use1243"
       x="0"
       y="0"
       width="100%"
       height="100%"
       inkscape:spray-origin="#path817"
       xlink:href="#path817"
       transform="matrix(-0.038029368048602,0.216040106802406,-0.216040106802406,-0.038029368048602,150.026883036163,53.981139310783)" />
    <use
       id="use1245"
       x="0"
       y="0"
       width="100%"
       height="100%"
       inkscape:spray-origin="#path817"
       xlink:href="#path817"
       transform="matrix(0.261823459957577,-0.050267931144872,0.050267931144872,0.261823459957577,127.273655034588,55.0493132479732)" />
    <use
       id="use1247"
       x="0"
       y="0"
       width="100%"
       height="100%"
       inkscape:spray-origin="#path817"
       xlink:href="#path817"
       transform="matrix(-0.164626612557352,0.259006998994255,-0.259006998994255,-0.164626612557352,145.444672612145,46.3236912433804)" />
    <use
       id="use1249"
       x="0"
       y="0"
       width="100%"
       height="100%"
       inkscape:spray-origin="#path817"
       xlink:href="#path817"
       transform="matrix(0.323863629259775,-0.160593923819553,0.160593923819553,0.323863629259775,110.739327590405,55.634121929727)" />
    <use
       id="use1251"
       x="0"
       y="0"
       width="100%"
       height="100%"
       inkscape:spray-origin="#path817"
       xlink:href="#path817"
       transform="matrix(0.061246921805309,0.449448543343813,-0.449448543343813,0.061246921805309,126.011227678475,48.3604735649342)" />
    <use
       id="use1253"
       x="0"
       y="0"
       width="100%"
       height="100%"
       inkscape:spray-origin="#path817"
       xlink:href="#path817"
       transform="matrix(0.141479153172634,-0.066343908161938,0.066343908161938,0.141479153172634,99.2632765550256,58.8968771931355)" />
    <use
       id="use1255"
       x="0"
       y="0"
       width="100%"
       height="100%"
       inkscape:spray-origin="#path817"
       xlink:href="#path817"
       transform="matrix(-0.302080971127185,-0.125009105814121,0.125009105814121,-0.302080971127185,106.064826535418,57.7997096766225)" />
    <use
       id="use1257"
       x="0"
       y="0"
       width="100%"
       height="100%"
       inkscape:spray-origin="#path817"
       xlink:href="#path817"
       transform="matrix(0.013301099629796,0.238662438646879,-0.238662438646879,0.013301099629796,56.1458212690147,49.1262492477974)" />
    <use
       id="use1259"
       x="0"
       y="0"
       width="100%"
       height="100%"
       inkscape:spray-origin="#path817"
       xlink:href="#path817"
       transform="matrix(-0.279785401871522,-0.093566059907957,0.093566059907957,-0.279785401871522,90.0875572357702,45.8000439254199)" />
    <use
       id="use1263"
       x="0"
       y="0"
       width="100%"
       height="100%"
       inkscape:spray-origin="#path817"
       xlink:href="#path817"
       transform="matrix(-0.338846792924914,0.028378795085085,-0.028378795085085,-0.338846792924914,56.5455408443472,45.5639455501307)" />
    <use
       id="use1265"
       x="0"
       y="0"
       width="100%"
       height="100%"
       inkscape:spray-origin="#path817"
       xlink:href="#path817"
       transform="matrix(-0.197227661852234,-0.493164129432282,0.493164129432282,-0.197227661852234,14.3294785922834,165.944590148916)" />
    <use
       id="use1267"
       x="0"
       y="0"
       width="100%"
       height="100%"
       inkscape:spray-origin="#path817"
       xlink:href="#path817"
       transform="matrix(0.343637760011096,0.203085649670896,-0.203085649670896,0.343637760011096,28.7652408334628,53.6165314904011)" />
    <use
       id="use1269"
       x="0"
       y="0"
       width="100%"
       height="100%"
       inkscape:spray-origin="#path817"
       xlink:href="#path817"
       transform="matrix(-0.094612261247612,-0.196580083367166,0.196580083367166,-0.094612261247612,43.2351441215809,53.2494370459839)" />
    <use
       id="use1271"
       x="0"
       y="0"
       width="100%"
       height="100%"
       inkscape:spray-origin="#path817"
       xlink:href="#path817"
       transform="matrix(-0.018966552988384,-0.146330000021171,0.146330000021171,-0.018966552988384,51.8931696034829,53.5604268389932)" />
    <use
       id="use1273"
       x="0"
       y="0"
       width="100%"
       height="100%"
       inkscape:spray-origin="#path817"
       xlink:href="#path817"
       transform="matrix(0.03580183042421,0.297859352995715,-0.297859352995715,0.03580183042421,48.9101089765346,45.1926712454663)" />
    <use
       id="use1275"
       x="0"
       y="0"
       width="100%"
       height="100%"
       inkscape:spray-origin="#path817"
       xlink:href="#path817"
       transform="matrix(-0.230523268883573,-0.044106973894123,0.044106973894123,-0.230523268883573,83.7893559629051,69.9172624312439)" />
    <use
       id="use1277"
       x="0"
       y="0"
       width="100%"
       height="100%"
       inkscape:spray-origin="#path817"
       xlink:href="#path817"
       transform="matrix(0.091433199444468,-0.009853279514338,0.009853279514338,0.091433199444468,74.9520875535441,72.2982383247486)" />
    <use
       id="use1279"
       x="0"
       y="0"
       width="100%"
       height="100%"
       inkscape:spray-origin="#path817"
       xlink:href="#path817"
       transform="matrix(0.235886705437617,0.023444237054159,-0.023444237054159,0.235886705437617,98.7838437588109,75.7723267651599)" />
    <use
       id="use1281"
       x="0"
       y="0"
       width="100%"
       height="100%"
       inkscape:spray-origin="#path817"
       xlink:href="#path817"
       transform="matrix(-0.210369592467259,-0.16425643692113,0.16425643692113,-0.210369592467259,111.380992303547,102.947832192268)" />
    <use
       id="use1283"
       x="0"
       y="0"
       width="100%"
       height="100%"
       inkscape:spray-origin="#path817"
       xlink:href="#path817"
       transform="matrix(0.221314301830569,0.359887660916081,-0.359887660916081,0.221314301830569,122.261017391303,83.0905084218212)" />
    <use
       id="use1285"
       x="0"
       y="0"
       width="100%"
       height="100%"
       inkscape:spray-origin="#path817"
       xlink:href="#path817"
       transform="matrix(0.048673063673492,-0.277249730567847,0.277249730567847,0.048673063673492,114.97318919667,105.611524722249)" />
    <use
       id="use1287"
       x="0"
       y="0"
       width="100%"
       height="100%"
       inkscape:spray-origin="#path817"
       xlink:href="#path817"
       transform="matrix(-0.186798040530349,0.011504752346855,-0.011504752346855,-0.186798040530349,83.3909927540652,100.302278880013)" />
    <use
       id="use1289"
       x="0"
       y="0"
       width="100%"
       height="100%"
       inkscape:spray-origin="#path817"
       xlink:href="#path817"
       transform="matrix(-0.148375032780129,0.217290577269146,-0.217290577269146,-0.148375032780129,110.84482060806,99.896546108267)" />
    <use
       id="use1291"
       x="0"
       y="0"
       width="100%"
       height="100%"
       inkscape:spray-origin="#path817"
       xlink:href="#path817"
       transform="matrix(0.206730968630692,-0.114347262775626,0.114347262775626,0.206730968630692,93.5519938797774,91.1583222957361)" />
    <use
       id="use1293"
       x="0"
       y="0"
       width="100%"
       height="100%"
       inkscape:spray-origin="#path817"
       xlink:href="#path817"
       transform="matrix(0.194907168402395,0.073543510449296,-0.073543510449296,0.194907168402395,129.385770751098,68.6303894700183)" />
    <use
       id="use1295"
       x="0"
       y="0"
       width="100%"
       height="100%"
       inkscape:spray-origin="#path817"
       xlink:href="#path817"
       transform="matrix(-0.15310481705123,0.067404500571801,-0.067404500571801,-0.15310481705123,146.10330003761,74.246214887713)" />
    <use
       id="use1297"
       x="0"
       y="0"
       width="100%"
       height="100%"
       inkscape:spray-origin="#path817"
       xlink:href="#path817"
       transform="matrix(0.113156311495528,-0.142394189015709,0.142394189015709,0.113156311495528,139.990292598837,66.408443616176)" />
    <use
       id="use1299"
       x="0"
       y="0"
       width="100%"
       height="100%"
       inkscape:spray-origin="#path817"
       xlink:href="#path817"
       transform="matrix(-0.269139667776352,-0.170278420147844,0.170278420147844,-0.269139667776352,152.485301919494,91.82853849027)" />
    <use
       id="use1301"
       x="0"
       y="0"
       width="100%"
       height="100%"
       inkscape:spray-origin="#path817"
       xlink:href="#path817"
       transform="matrix(-0.258063999358995,-0.007847506222456,0.007847506222456,-0.258063999358995,166.401110878148,77.0373943916906)" />
    <use
       id="use1303"
       x="0"
       y="0"
       width="100%"
       height="100%"
       inkscape:spray-origin="#path817"
       xlink:href="#path817"
       transform="matrix(-0.86375990232877,-0.085262291653338,0.085262291653338,-0.86375990232877,194.57273892989,90.1241780263442)" />
    <use
       id="use1305"
       x="0"
       y="0"
       width="100%"
       height="100%"
       inkscape:spray-origin="#path817"
       xlink:href="#path817"
       transform="matrix(0.259018906921235,0.138245450128814,-0.138245450128814,0.259018906921235,174.342580071449,38.1662035337116)" />
    <use
       id="use1307"
       x="0"
       y="0"
       width="100%"
       height="100%"
       inkscape:spray-origin="#path817"
       xlink:href="#path817"
       transform="matrix(-0.243652273609701,0.143022430734067,-0.143022430734067,-0.243652273609701,184.215306910493,46.9861220207168)" />
    <use
       id="use1309"
       x="0"
       y="0"
       width="100%"
       height="100%"
       inkscape:spray-origin="#path817"
       xlink:href="#path817"
       transform="matrix(0.183905481606872,-0.118544121939902,0.118544121939902,0.183905481606872,139.285320264019,46.4302759205208)" />
    <use
       id="use1311"
       x="0"
       y="0"
       width="100%"
       height="100%"
       inkscape:spray-origin="#path817"
       xlink:href="#path817"
       transform="matrix(0.053288427759916,0.208898569778312,-0.208898569778312,0.053288427759916,147.562002155868,40.0051667516845)" />
    <use
       id="use1313"
       x="0"
       y="0"
       width="100%"
       height="100%"
       inkscape:spray-origin="#path817"
       xlink:href="#path817"
       transform="matrix(-0.196707156858789,0.028144375571309,-0.028144375571309,-0.196707156858789,155.400452684673,64.4233929313071)" />
    <use
       id="use1315"
       x="0"
       y="0"
       width="100%"
       height="100%"
       inkscape:spray-origin="#path817"
       xlink:href="#path817"
       transform="matrix(0.49986789702133,0.156846270424394,-0.156846270424394,0.49986789702133,170.173353530232,66.1398326964168)" />
    <use
       id="use1317"
       x="0"
       y="0"
       width="100%"
       height="100%"
       inkscape:spray-origin="#path817"
       xlink:href="#path817"
       transform="matrix(0.285939494596481,0.470345773340491,-0.470345773340491,0.285939494596481,188.930029036346,76.2432596262652)" />
    <use
       id="use1319"
       x="0"
       y="0"
       width="100%"
       height="100%"
       inkscape:spray-origin="#path817"
       xlink:href="#path817"
       transform="matrix(-0.014952417946526,0.537026681500654,-0.537026681500654,-0.014952417946526,197.303838799247,94.8047635229803)" />
    <use
       id="use1321"
       x="0"
       y="0"
       width="100%"
       height="100%"
       inkscape:spray-origin="#path817"
       xlink:href="#path817"
       transform="matrix(-0.154047567770379,0.225007643749341,-0.225007643749341,-0.154047567770379,188.104069152969,118.098150947126)" />
    <use
       id="use1323"
       x="0"
       y="0"
       width="100%"
       height="100%"
       inkscape:spray-origin="#path817"
       xlink:href="#path817"
       transform="matrix(0.316973162756485,0.30652259233116,-0.30652259233116,0.316973162756485,178.322218933694,109.568752422481)" />
    <use
       id="use1325"
       x="0"
       y="0"
       width="100%"
       height="100%"
       inkscape:spray-origin="#path817"
       xlink:href="#path817"
       transform="matrix(-0.024936812696555,0.319191531173493,-0.319191531173493,-0.024936812696555,188.413516836554,128.816653227074)" />
    <use
       id="use1327"
       x="0"
       y="0"
       width="100%"
       height="100%"
       inkscape:spray-origin="#path817"
       xlink:href="#path817"
       transform="matrix(-0.198065571037868,-0.253210593631559,0.253210593631559,-0.198065571037868,177.388095379615,158.173666472425)" />
    <use
       id="use1329"
       x="0"
       y="0"
       width="100%"
       height="100%"
       inkscape:spray-origin="#path817"
       xlink:href="#path817"
       transform="matrix(-0.599211518174372,-0.109292814196401,0.109292814196401,-0.599211518174372,192.214143073221,175.378793497192)" />
    <use
       id="use1331"
       x="0"
       y="0"
       width="100%"
       height="100%"
       inkscape:spray-origin="#path817"
       xlink:href="#path817"
       transform="matrix(0.305434597773858,-0.101229039370435,0.101229039370435,0.305434597773858,159.430174752824,144.14342582423)" />
    <use
       id="use1333"
       x="0"
       y="0"
       width="100%"
       height="100%"
       inkscape:spray-origin="#path817"
       xlink:href="#path817"
       transform="matrix(-0.15084188766821,0.495375534172115,-0.495375534172115,-0.15084188766821,181.042505087965,149.231731196721)" />
    <use
       id="use1335"
       x="0"
       y="0"
       width="100%"
       height="100%"
       inkscape:spray-origin="#path817"
       xlink:href="#path817"
       transform="matrix(-0.143209190000116,-0.340944570213606,0.340944570213606,-0.143209190000116,138.253570829226,148.989074993424)" />
    <use
       id="use1337"
       x="0"
       y="0"
       width="100%"
       height="100%"
       inkscape:spray-origin="#path817"
       xlink:href="#path817"
       transform="matrix(-0.002441846950216,-0.190464428667005,0.190464428667005,-0.002441846950216,135.197876189332,124.654131612578)" />
    <use
       id="use1339"
       x="0"
       y="0"
       width="100%"
       height="100%"
       inkscape:spray-origin="#path817"
       xlink:href="#path817"
       transform="matrix(-0.013449380264033,-0.247814655923637,0.247814655923637,-0.013449380264033,133.555290980235,134.090293386769)" />
    <use
       id="use1341"
       x="0"
       y="0"
       width="100%"
       height="100%"
       inkscape:spray-origin="#path817"
       xlink:href="#path817"
       transform="matrix(0.201499627964219,-0.081322628112688,0.081322628112688,0.201499627964219,125.557019223107,121.610747432213)" />
    <use
       id="use1343"
       x="0"
       y="0"
       width="100%"
       height="100%"
       inkscape:spray-origin="#path817"
       xlink:href="#path817"
       transform="matrix(-0.303413101289278,0.027767227819591,-0.027767227819591,-0.303413101289278,140.016486792322,129.853258838864)" />
    <use
       id="use1345"
       x="0"
       y="0"
       width="100%"
       height="100%"
       inkscape:spray-origin="#path817"
       xlink:href="#path817"
       transform="matrix(-0.117684460326408,0.193899439724145,-0.193899439724145,-0.117684460326408,113.481207890196,142.214812972986)" />
    <use
       id="use1347"
       x="0"
       y="0"
       width="100%"
       height="100%"
       inkscape:spray-origin="#path817"
       xlink:href="#path817"
       transform="matrix(0.216085770595275,-0.316178430386332,0.316178430386332,0.216085770595275,87.6336278505283,151.539708671423)" />
    <use
       id="use1349"
       x="0"
       y="0"
       width="100%"
       height="100%"
       inkscape:spray-origin="#path817"
       xlink:href="#path817"
       transform="matrix(-0.05037177449535,0.397648465604106,-0.397648465604106,-0.05037177449535,131.365455636998,143.080014452739)" />
    <use
       id="use1351"
       x="0"
       y="0"
       width="100%"
       height="100%"
       inkscape:spray-origin="#path817"
       xlink:href="#path817"
       transform="matrix(0.048011293768364,-0.443293438241829,0.443293438241829,0.048011293768364,78.0928863068974,161.265889716131)" />
    <use
       id="use1353"
       x="0"
       y="0"
       width="100%"
       height="100%"
       inkscape:spray-origin="#path817"
       xlink:href="#path817"
       transform="matrix(-0.22389919814824,-0.132844885726234,0.132844885726234,-0.22389919814824,78.6015169396372,160.979691985456)" />
    <use
       id="use1355"
       x="0"
       y="0"
       width="100%"
       height="100%"
       inkscape:spray-origin="#path817"
       xlink:href="#path817"
       transform="matrix(0.037315396636718,0.315077048389388,-0.315077048389388,0.037315396636718,74.1319935094172,135.264992986606)" />
    <use
       id="use1357"
       x="0"
       y="0"
       width="100%"
       height="100%"
       inkscape:spray-origin="#path817"
       xlink:href="#path817"
       transform="matrix(0.642967397036474,-0.018740112451817,0.018740112451817,0.642967397036474,50.3595899816246,132.366254933227)" />
    <use
       id="use1359"
       x="0"
       y="0"
       width="100%"
       height="100%"
       inkscape:spray-origin="#path817"
       xlink:href="#path817"
       transform="matrix(-0.160909361636333,0.52319977731404,-0.52319977731404,-0.160909361636333,74.5895127166174,134.509667937223)" />
    <use
       id="use1361"
       x="0"
       y="0"
       width="100%"
       height="100%"
       inkscape:spray-origin="#path817"
       xlink:href="#path817"
       transform="matrix(-0.080374054337542,-0.370822829326003,0.370822829326003,-0.080374054337542,33.0452765881657,164.122441552884)" />
    <use
       id="use1363"
       x="0"
       y="0"
       width="100%"
       height="100%"
       inkscape:spray-origin="#path817"
       xlink:href="#path817"
       transform="matrix(-0.295074348914872,0.06376761207292,-0.06376761207292,-0.295074348914872,46.206326784488,159.608841369499)" />
    <use
       id="use1365"
       x="0"
       y="0"
       width="100%"
       height="100%"
       inkscape:spray-origin="#path817"
       xlink:href="#path817"
       transform="matrix(-0.016097650788709,1.0052536520943,-1.0052536520943,-0.016097650788709,90.0903266177709,13.3615841934031)" />
    <use
       id="use1367"
       x="0"
       y="0"
       width="100%"
       height="100%"
       inkscape:spray-origin="#path817"
       xlink:href="#path817"
       transform="matrix(0.118343938121758,0.380664522210609,-0.380664522210609,0.118343938121758,35.3191411610414,118.830729242259)" />
    <use
       id="use1369"
       x="0"
       y="0"
       width="100%"
       height="100%"
       inkscape:spray-origin="#path817"
       xlink:href="#path817"
       transform="matrix(0.277375771011566,0.035362734770426,-0.035362734770426,0.277375771011566,24.9064788964058,115.15505382636)" />
    <use
       id="use1371"
       x="0"
       y="0"
       width="100%"
       height="100%"
       inkscape:spray-origin="#path817"
       xlink:href="#path817"
       transform="matrix(0.486032954691744,0.199580741569947,-0.199580741569947,0.486032954691744,22.5509664294061,88.520601563303)" />
    <use
       id="use1373"
       x="0"
       y="0"
       width="100%"
       height="100%"
       inkscape:spray-origin="#path817"
       xlink:href="#path817"
       transform="matrix(-0.063362564877692,-0.191951699808801,0.191951699808801,-0.063362564877692,53.1979463441081,121.254279831113)" />
    <use
       id="use1375"
       x="0"
       y="0"
       width="100%"
       height="100%"
       inkscape:spray-origin="#path817"
       xlink:href="#path817"
       transform="matrix(-0.304365606768126,-0.024045487131927,0.024045487131927,-0.304365606768126,56.5429644325525,108.81462850652)" />
    <use
       id="use1377"
       x="0"
       y="0"
       width="100%"
       height="100%"
       inkscape:spray-origin="#path817"
       xlink:href="#path817"
       transform="matrix(-0.311846742319676,0.052775023554347,-0.052775023554347,-0.311846742319676,55.8476558920984,91.3459940769167)" />
    <use
       id="use1379"
       x="0"
       y="0"
       width="100%"
       height="100%"
       inkscape:spray-origin="#path817"
       xlink:href="#path817"
       transform="matrix(0.123978864113036,0.052589382492051,-0.052589382492051,0.123978864113036,67.9427957554013,110.028988983827)" />
    <use
       id="use1381"
       x="0"
       y="0"
       width="100%"
       height="100%"
       inkscape:spray-origin="#path817"
       xlink:href="#path817"
       transform="matrix(-0.027488549471033,-0.366415721753267,0.366415721753267,-0.027488549471033,12.5084814933582,91.2548448384404)" />
    <use
       id="use1383"
       x="0"
       y="0"
       width="100%"
       height="100%"
       inkscape:spray-origin="#path817"
       xlink:href="#path817"
       transform="matrix(0.522326205847662,0.037777020993198,-0.037777020993198,0.522326205847662,14.1608276047225,71.2859329280582)" />
    <use
       id="use1385"
       x="0"
       y="0"
       width="100%"
       height="100%"
       inkscape:spray-origin="#path817"
       xlink:href="#path817"
       transform="matrix(0.474297300163656,-0.357619916147019,0.357619916147019,0.474297300163656,3.1302482597061,52.7286445022725)" />
    <use
       id="use1387"
       x="0"
       y="0"
       width="100%"
       height="100%"
       inkscape:spray-origin="#path817"
       xlink:href="#path817"
       transform="matrix(0.333417266780259,-0.204813711921298,0.204813711921298,0.333417266780259,17.8709452435679,45.3994290795525)" />
    <use
       id="use1391"
       x="0"
       y="0"
       width="100%"
       height="100%"
       inkscape:spray-origin="#path817"
       xlink:href="#path817"
       transform="matrix(-0.396670011214098,-0.034959192332969,0.034959192332969,-0.396670011214098,180.169536988766,43.369268214501)" />
    <use
       id="use1393"
       x="0"
       y="0"
       width="100%"
       height="100%"
       inkscape:spray-origin="#path817"
       xlink:href="#path817"
       transform="matrix(-0.455535378794175,0.124878863664985,-0.124878863664985,-0.455535378794175,195.220716480023,43.5959800647142)" />
    <use
       id="use1395"
       x="0"
       y="0"
       width="100%"
       height="100%"
       inkscape:spray-origin="#path817"
       xlink:href="#path817"
       transform="matrix(-0.114642429171495,0.198082351447345,-0.198082351447345,-0.114642429171495,139.956442968724,88.6409817335102)" />
    <use
       id="use1397"
       x="0"
       y="0"
       width="100%"
       height="100%"
       inkscape:spray-origin="#path817"
       xlink:href="#path817"
       transform="matrix(-0.061260226784872,0.258794012473127,-0.258794012473127,-0.061260226784872,141.35595125444,93.6265064457529)" />
    <use
       id="use1399"
       x="0"
       y="0"
       width="100%"
       height="100%"
       inkscape:spray-origin="#path817"
       xlink:href="#path817"
       transform="matrix(0.470335011709686,0.017119378339791,-0.017119378339791,0.470335011709686,151.652134926975,87.6244015716054)" />
    <use
       id="use1401"
       x="0"
       y="0"
       width="100%"
       height="100%"
       inkscape:spray-origin="#path817"
       xlink:href="#path817"
       transform="matrix(0.031071321522312,0.16418292484347,-0.16418292484347,0.031071321522312,157.63917384261,92.8439426193488)" />
    <use
       id="use1403"
       x="0"
       y="0"
       width="100%"
       height="100%"
       inkscape:spray-origin="#path817"
       xlink:href="#path817"
       transform="matrix(-0.305703960088177,-0.067705653972836,0.067705653972836,-0.305703960088177,176.525038584576,122.978033354017)" />
    <use
       id="use1405"
       x="0"
       y="0"
       width="100%"
       height="100%"
       inkscape:spray-origin="#path817"
       xlink:href="#path817"
       transform="matrix(0.094028051579576,-0.174714968085719,0.174714968085719,0.094028051579576,148.748991300098,127.429791137118)" />
    <use
       id="use1407"
       x="0"
       y="0"
       width="100%"
       height="100%"
       inkscape:spray-origin="#path817"
       xlink:href="#path817"
       transform="matrix(-0.017629093871447,0.21029305697004,-0.21029305697004,-0.017629093871447,155.942698901512,121.357329493376)" />
    <use
       id="use1409"
       x="0"
       y="0"
       width="100%"
       height="100%"
       inkscape:spray-origin="#path817"
       xlink:href="#path817"
       transform="matrix(0.361286826326558,0.004650049265061,-0.004650049265061,0.361286826326558,117.525600922155,103.573453561687)" />
    <use
       id="use1411"
       x="0"
       y="0"
       width="100%"
       height="100%"
       inkscape:spray-origin="#path817"
       xlink:href="#path817"
       transform="matrix(0.164815308658,-0.091654650469332,0.091654650469332,0.164815308658,68.9122873909814,82.593237232583)" />
    <use
       id="use1413"
       x="0"
       y="0"
       width="100%"
       height="100%"
       inkscape:spray-origin="#path817"
       xlink:href="#path817"
       transform="matrix(0.287770584464704,0.037936240971891,-0.037936240971891,0.287770584464704,108.528692508002,61.2203079047565)" />
    <use
       id="use1415"
       x="0"
       y="0"
       width="100%"
       height="100%"
       inkscape:spray-origin="#path817"
       xlink:href="#path817"
       transform="matrix(-0.179287709725112,-0.13466328163914,0.13466328163914,-0.179287709725112,126.326947232001,78.4398983120901)" />
    <use
       id="use1417"
       x="0"
       y="0"
       width="100%"
       height="100%"
       inkscape:spray-origin="#path817"
       xlink:href="#path817"
       transform="matrix(-0.442710050606492,-0.089199790628331,0.089199790628331,-0.442710050606492,88.3517861842667,47.2849065462352)" />
    <use
       id="use1419"
       x="0"
       y="0"
       width="100%"
       height="100%"
       inkscape:spray-origin="#path817"
       xlink:href="#path817"
       transform="matrix(-0.064837609612402,-0.673455221030342,0.673455221030342,-0.064837609612402,124.188476963062,178.383334436842)" />
    <use
       id="use1421"
       x="0"
       y="0"
       width="100%"
       height="100%"
       inkscape:spray-origin="#path817"
       xlink:href="#path817"
       transform="matrix(-0.55905075831627,-0.13162824663541,0.13162824663541,-0.55905075831627,141.058801772531,175.115033922552)" />
    <use
       id="use1423"
       x="0"
       y="0"
       width="100%"
       height="100%"
       inkscape:spray-origin="#path817"
       xlink:href="#path817"
       transform="matrix(0.004377678227037,0.186032179587695,-0.186032179587695,0.004377678227037,136.465136696266,129.998913504383)" />
    <use
       id="use1425"
       x="0"
       y="0"
       width="100%"
       height="100%"
       inkscape:spray-origin="#path817"
       xlink:href="#path817"
       transform="matrix(0.003431280931891,0.224256091303348,-0.224256091303348,0.003431280931891,133.075178881299,124.428663516637)" />
    <use
       id="use1427"
       x="0"
       y="0"
       width="100%"
       height="100%"
       inkscape:spray-origin="#path817"
       xlink:href="#path817"
       transform="matrix(-0.057576064335593,-0.33293284225494,0.33293284225494,-0.057576064335593,40.5740064311603,163.983651422752)" />
    <use
       id="use1429"
       x="0"
       y="0"
       width="100%"
       height="100%"
       inkscape:spray-origin="#path817"
       xlink:href="#path817"
       transform="matrix(0.277491012380003,-0.189780462879367,0.189780462879367,0.277491012380003,72.079389455445,146.718735994465)" />
    <use
       id="use1431"
       x="0"
       y="0"
       width="100%"
       height="100%"
       inkscape:spray-origin="#path817"
       xlink:href="#path817"
       transform="matrix(0.199611124855808,-0.141857389590154,0.141857389590154,0.199611124855808,83.1153385895117,100.41409981094)" />
    <use
       id="use1433"
       x="0"
       y="0"
       width="100%"
       height="100%"
       inkscape:spray-origin="#path817"
       xlink:href="#path817"
       transform="matrix(-0.209048197460914,0.256836248868948,-0.256836248868948,-0.209048197460914,119.701727926806,50.5480906360594)" />
    <use
       id="use1435"
       x="0"
       y="0"
       width="100%"
       height="100%"
       inkscape:spray-origin="#path817"
       xlink:href="#path817"
       transform="matrix(-0.253806382266646,0.131501893991922,-0.131501893991922,-0.253806382266646,110.20161029842,56.3670566687713)" />
    <use
       id="use1439"
       x="0"
       y="0"
       width="100%"
       height="100%"
       inkscape:spray-origin="#path817"
       xlink:href="#path817"
       transform="matrix(0.205227356147735,-0.002883177707189,0.002883177707189,0.205227356147735,91.4367072198634,54.1741374673724)" />
    <use
       id="use1441"
       x="0"
       y="0"
       width="100%"
       height="100%"
       inkscape:spray-origin="#path817"
       xlink:href="#path817"
       transform="matrix(0.054095177729842,-0.141172750136925,0.141172750136925,0.054095177729842,80.5205906395293,65.2178471638216)" />
    <use
       id="use1443"
       x="0"
       y="0"
       width="100%"
       height="100%"
       inkscape:spray-origin="#path817"
       xlink:href="#path817"
       transform="matrix(-0.038031555357108,-0.268860389265909,0.268860389265909,-0.038031555357108,64.4123509201357,67.6601977019259)" />
    <use
       id="use1445"
       x="0"
       y="0"
       width="100%"
       height="100%"
       inkscape:spray-origin="#path817"
       xlink:href="#path817"
       transform="matrix(-0.003796385824365,0.176273144032657,-0.176273144032657,-0.003796385824365,85.3607654561875,50.9930803112904)" />
    <use
       id="use1449"
       x="0"
       y="0"
       width="100%"
       height="100%"
       inkscape:spray-origin="#path817"
       xlink:href="#path817"
       transform="matrix(0.219193874510573,-0.264822070219352,0.264822070219352,0.219193874510573,79.5409511332188,39.303138636301)" />
    <use
       id="use1451"
       x="0"
       y="0"
       width="100%"
       height="100%"
       inkscape:spray-origin="#path817"
       xlink:href="#path817"
       transform="matrix(-0.310329572360415,-0.123803420205655,0.123803420205655,-0.310329572360415,53.7495770170851,120.684205380382)" />
    <use
       id="use1453"
       x="0"
       y="0"
       width="100%"
       height="100%"
       inkscape:spray-origin="#path817"
       xlink:href="#path817"
       transform="matrix(-0.138791356115251,-0.193874853469973,0.193874853469973,-0.138791356115251,64.7152352603344,106.563592985285)" />
    <use
       id="use1455"
       x="0"
       y="0"
       width="100%"
       height="100%"
       inkscape:spray-origin="#path817"
       xlink:href="#path817"
       transform="matrix(-0.185598162650502,-0.114840442588934,0.114840442588934,-0.185598162650502,58.8879194939609,92.8342362782656)" />
    <use
       id="use1457"
       x="0"
       y="0"
       width="100%"
       height="100%"
       inkscape:spray-origin="#path817"
       xlink:href="#path817"
       transform="matrix(-0.034988998189365,-0.197334168990025,0.197334168990025,-0.034988998189365,64.5204835203416,84.5421811998583)" />
    <use
       id="use1459"
       x="0"
       y="0"
       width="100%"
       height="100%"
       inkscape:spray-origin="#path817"
       xlink:href="#path817"
       transform="matrix(0.142197499920708,-0.085106645162683,0.085106645162683,0.142197499920708,77.555084936255,95.1269269141211)" />
    <use
       id="use1461"
       x="0"
       y="0"
       width="100%"
       height="100%"
       inkscape:spray-origin="#path817"
       xlink:href="#path817"
       transform="matrix(-0.341971241939856,0.197618541101438,-0.197618541101438,-0.341971241939856,102.596733357209,116.052276568296)" />
    <use
       id="use1463"
       x="0"
       y="0"
       width="100%"
       height="100%"
       inkscape:spray-origin="#path817"
       xlink:href="#path817"
       transform="matrix(-0.220046335762272,-0.029378905144072,0.029378905144072,-0.220046335762272,90.4514175345005,126.019411318562)" />
  </g>
</svg>
