<?xml version="1.0" encoding="UTF-8" standalone="no"?>
<!-- Created with Inkscape (http://www.inkscape.org/) -->

<svg
   xmlns:dc="http://purl.org/dc/elements/1.1/"
   xmlns:cc="http://creativecommons.org/ns#"
   xmlns:rdf="http://www.w3.org/1999/02/22-rdf-syntax-ns#"
   xmlns:svg="http://www.w3.org/2000/svg"
   xmlns="http://www.w3.org/2000/svg"
   xmlns:sodipodi="http://sodipodi.sourceforge.net/DTD/sodipodi-0.dtd"
   xmlns:inkscape="http://www.inkscape.org/namespaces/inkscape"
   height="1000"
   width="1000"
   sodipodi:docname="font_editor.svg"
   version="1.1"
   id="svg840"
   inkscape:version="0.92.3 (11504fc, 2018-09-15)">
  <sodipodi:namedview
     id="base"
     pagecolor="#ffffff"
     bordercolor="#666666"
     borderopacity="1.0"
     inkscape:pageopacity="0.0"
     inkscape:pageshadow="2"
     inkscape:zoom="0.549999999999999"
     inkscape:cx="489.404958677686"
     inkscape:cy="514.95867768595"
     inkscape:document-units="px"
     inkscape:current-layer="layer1"
     showgrid="false"
     showguides="true"
     inkscape:window-width="1280"
     inkscape:window-height="964"
     inkscape:window-x="0"
     inkscape:window-y="0"
     inkscape:window-maximized="1"
     showborder="true"
     inkscape:showpageshadow="false"
     inkscape:snap-global="false">
    <sodipodi:guide
       id="guide_baseline"
       inkscape:label="baseline"
       position="0,253"
       orientation="0,1"
       inkscape:locked="false" />
    <sodipodi:guide
       id="guide_ascender"
       inkscape:label="ascender"
       position="0,945"
       orientation="0,1"
       inkscape:locked="false" />
    <sodipodi:guide
       id="guide_caps"
       inkscape:label="caps"
       position="0,896"
       orientation="0,1"
       inkscape:locked="false" />
    <sodipodi:guide
       id="guide_xheight"
       inkscape:label="xheight"
       position="0,729"
       orientation="0,1"
       inkscape:locked="false" />
    <sodipodi:guide
       id="guide_descender"
       inkscape:label="descender"
       position="0,28"
       orientation="0,1"
       inkscape:locked="false" />
  </sodipodi:namedview>
  <defs
     id="defs4">
    <inkscape:path-effect
       effect="skeletal"
       id="path-effect1389"
       is_visible="true"
       pattern="M 0,5 C 0,2.24 2.24,0 5,0 7.76,0 10,2.24 10,5 10,7.76 7.76,10 5,10 2.24,10 0,7.76 0,5 Z"
       copytype="single_stretched"
       prop_scale="5.07543997740315"
       scale_y_rel="false"
       spacing="0"
       normal_offset="0"
       tang_offset="0"
       prop_units="false"
       vertical_pattern="false"
       fuse_tolerance="0" />
    <font
       horiz-adv-x="1024"
       id="font1413"
       inkscape:label="font 1">
      <font-face
         units-per-em="1024"
         id="font-face1415"
         font-family="SVGFont 1" />
      <missing-glyph
         d="M0,0h1000v1024h-1000z"
         id="missing-glyph1417" />
      <glyph
         glyph-name="letter a"
         id="glyph1419"
         unicode="a"
         d="m 764.408203125,741.974609375 c -80.031281541505,0.491497825089 -152.46823580629,-50.865752605403 -191.328125,-118.384765625 l -0.001953125,-0.00390625 -0.001953125,-0.00390625 c -24.060704565366,-42.099157198481 -34.57147092032,-78.692059257644 -37.89453125,-139.556640625 l -0.00390625,-0.078125 v -0.078125 c -0.01319612923,-57.882839778857 6.922319321462,-123.619692851666 52.107421875,-166.294921875 l 0.0078125,-0.0078125 0.005859375,-0.005859375 c 41.433273670884,-38.582319696822 101.762490173715,-48.223574945996 155.740234375,-43.15625 l 0.0859375,0.009765625 0.0859375,0.01171875 c 38.169104359555,5.907672920078 71.646072865425,27.633649962972 98.435546875,54.240234375 7.399587268889,-31.196490662014 36.952413730977,-55.931796096614 69.998046875,-52.421875 30.127785286073,2.452615998654 60.475036244538,15.420120181305 81.087890625,38.076171875 l 0.521484375,0.57421875 0.162109375,0.7578125 c 0.448439471967,2.089913385891 0.234518620195,4.39080917052 -1.263671875,5.9453125 -1.498190495195,1.55450332948 -3.479707178227,1.837005069451 -5.30078125,1.798828125 -3.642148143545,-0.0763538889 -7.844414684687,-1.472070876153 -12.5078125,-3.169921875 -4.663397815313,-1.697850998846 -9.66167117075,-3.760648744039 -14.091796875,-5.373046875 -4.43012570425,-1.61239813096 -8.451693899888,-2.692331822293 -10.216796875,-2.685546875 l -0.458984375,0.001953125 -0.4375,-0.142578125 c -12.476377782405,-4.045579629085 -21.784603874178,-6.645279112079 -29.591796875,-5.42578125 -7.787124485652,1.216363123212 -14.774117801305,6.035193003938 -23.228515625,18.369140625 -5.93166331752,10.551752229147 -9.275556663177,16.699093713279 -10.3671875,24.998046875 -1.091884181427,8.300879174562 0.08380521975,19.254278267201 3.806640625,38.96484375 18.746629638144,48.754536791747 68.335654945049,157.030476070742 55.0078125,245.427734375 l -0.001953125,0.0078125 c -2.133560662439,14.614353630585 -5.306337420877,31.83542920708 -10.7890625,46.994140625 -5.470339035363,15.124466318949 -13.218569335126,28.400512080351 -25.189453125,34.564453125 -12.189653878712,7.360036105977 -27.303445653872,7.872394826054 -37.119140625,4.87109375 -2.460456144046,-0.752322652082 -4.608677891798,-1.732061141615 -6.3515625,-3.048828125 -1.742884608202,-1.316766983385 -3.167407300804,-3.076336649757 -3.548828125,-5.3046875 -0.381420824196,-2.228350850243 0.467866419133,-4.560529954823 2.052734375,-6.4375 1.513045936882,-1.791910732999 3.727467233154,-3.362336195215 6.65625,-4.890625 18.002000957224,-13.515575936092 27.905720293704,-26.228666890859 30.765625,-47.4296875 l 0.01953125,-0.1484375 0.03515625,-0.142578125 C 917.705807256619,585.47138116641 898.747802035077,498.319620755891 868.68359375,436.44921875 844.276371672337,389.608642314861 800.245975357292,346.731100480775 748.841796875,328.111328125 c -29.633029298168,-8.723724065245 -62.206993761023,-3.866316053211 -91.935546875,4.5859375 l -0.001953125,0.001953125 h -0.001953125 c -37.785919265856,10.676241900894 -62.627131155454,46.52954856873 -69.359375,84.232421875 l -0.00390625,0.021484375 -0.00390625,0.01953125 c -6.684350810302,34.544905466683 -3.849112233712,80.835844272784 -2.279296875,108.091796875 8.815707906485,87.127755343236 62.779862667958,158.863445570551 143.671875,184.103515625 l 0.0234375,0.0078125 0.025390625,0.0078125 c 37.718501841829,12.511356070355 78.348050343996,9.751905807 117.857421875,5.83203125 l 7.232421875,-0.716796875 -4.787109375,5.46875 c -6.58924661128,7.528323532308 -17.069491937943,11.873231609807 -28.3046875,14.89453125 -11.235195562057,3.021299640193 -23.334506430753,4.652921559759 -33.287109375,6.123046875 l -0.0546875,0.0078125 -0.056640625,0.005859375 c -7.68818507885,0.828375400977 -15.422691637373,1.219743839065 -23.154296875,1.17578125 z" />
    </font>
  </defs>
  <metadata
     id="metadata7">
    <rdf:RDF>
      <cc:Work
         rdf:about="">
        <dc:format>image/svg+xml</dc:format>
        <dc:type
           rdf:resource="http://purl.org/dc/dcmitype/StillImage" />
        <dc:title></dc:title>
      </cc:Work>
    </rdf:RDF>
  </metadata>
  <g
     id="layer1"
     inkscape:groupmode="layer"
     inkscape:label="Lower case a">
    <path
       style="color:#000000;font-style:normal;font-variant:normal;font-weight:normal;font-stretch:normal;font-size:medium;line-height:normal;font-family:sans-serif;font-variant-ligatures:normal;font-variant-position:normal;font-variant-caps:normal;font-variant-numeric:normal;font-variant-alternates:normal;font-feature-settings:normal;text-indent:0;text-align:start;text-decoration:none;text-decoration-line:none;text-decoration-style:solid;text-decoration-color:#000000;letter-spacing:normal;word-spacing:normal;text-transform:none;writing-mode:lr-tb;direction:ltr;text-orientation:mixed;dominant-baseline:auto;baseline-shift:baseline;text-anchor:start;white-space:normal;shape-padding:0;clip-rule:nonzero;display:inline;overflow:visible;visibility:visible;opacity:1;isolation:auto;mix-blend-mode:normal;color-interpolation:sRGB;color-interpolation-filters:linearRGB;solid-color:#000000;solid-opacity:1;vector-effect:none;fill:#000000;fill-opacity:1;fill-rule:nonzero;stroke:none;stroke-width:5.894425869;stroke-linecap:butt;stroke-linejoin:miter;stroke-miterlimit:4;stroke-dasharray:none;stroke-dashoffset:0;stroke-opacity:1;color-rendering:auto;image-rendering:auto;shape-rendering:auto;text-rendering:auto;enable-background:accumulate"
       d="m 522.408392653542,269.925480910967 c -82.096855108767,-0.504183176321 -156.403376562036,52.178576191842 -196.266223079423,121.440226413976 l -0.0020035343,0.0040070687 -0.0020035343,0.0040070687 c -24.681701185721,43.185718660928 -35.463745980008,80.723068063516 -38.872573092966,143.158538563638 l -0.0040070687,0.08014137325 v 0.08014137325 c -0.01353671575,59.376771420865 7.100981458805,126.81026490086 53.452292420742,170.586923557078 l 0.0080141373,0.0080141373 0.006010603,0.006010603 c 42.502648960787,39.578113069043 104.388937055396,49.468205043237 159.759824031545,44.270094581083 l 0.08815551057,-0.01001767166 0.08815551057,-0.01202120599 c 39.154232818485,-6.06014746244 73.4952277391,-28.346862794643 100.976126755613,-55.640151910357 7.590567490333,32.001658907 37.906139918776,57.375372125404 71.804666894073,53.774861448057 30.905370696783,-2.515916981468 62.035871382243,-15.818106968934 83.180734826343,-39.058901785763 l 0.53494366641,-0.589039093358 0.16629334949,-0.777371320486 c 0.460013505291,-2.143853167494 0.24057144671,-4.504134100308 -1.296286712249,-6.09875850402 -1.53685815897,-1.594624403712 -3.56951695049,-1.884417394248 -5.43759217474,-1.845255118989 -3.7361504485,0.07832455052 -8.04687571382,1.510064403589 -12.83063385669,3.251736219456 -4.783758142865,1.741671815867 -9.911034822079,3.857709499432 -14.455500199243,5.511722944993 -4.544465377163,1.65401344556 -8.669828549014,2.761819769247 -10.480488086244,2.754859705331 l -0.47083056782,-0.0020035343 -0.448791690177,0.146258006174 c -12.798387822307,4.149994330251 -22.346855297235,6.816790958654 -30.355548651249,5.565818371934 -7.988106878946,-1.247756941568 -15.155431540411,-6.190958785795 -23.828033800364,-18.843240384463 -6.084757041905,-10.824088496579 -9.514954862181,-17.130090267464 -10.634760229742,-25.643235904385 -1.120065250882,-8.51512135934 0.08596819707,-19.751223055281 3.904888411411,-39.970509906436 19.230472229565,-50.012870789922 70.09936933069,-161.083366320389 56.427540902499,-251.762120517938 l -0.0020035343,-0.0080141373 c -2.188626961811,-14.991543923936 -5.44329174804,-32.657088185994 -11.067523645271,-48.207039541792 -5.611526174913,-15.51482240529 -13.559735025463,-29.13351729931 -25.839582268837,-35.456547058356 -12.504263695786,-7.549995528615 -28.008136051821,-8.075578010811 -38.0771699635,-4.996814621887 -2.523959477701,0.771739781912 -4.727625921243,1.776764907968 -6.515493644899,3.127517090924 -1.787867723655,1.350752182957 -3.249156745162,3.155735599085 -3.640421879698,5.441599243403 -0.391265134537,2.285863644318 0.47994185376,4.678235306355 2.105714582038,6.603649155469 1.552097013324,1.838159192023 3.823671587768,3.44911667199 6.828045000558,5.016849965199 18.46662499696,13.864407241329 28.625955145675,26.905617702976 31.55967278427,48.653827697639 l 0.02003534331,0.152268609167 0.03606361796,0.146258006174 c 16.834443400518,69.678221427352 -2.612859926957,159.079331956686 -33.453012727206,222.546582901113 -25.037162168624,48.049511925065 -70.203964411859,92.033705000213 -122.934863025014,111.134045814542 -30.39784526584,8.94887969802 -63.812529990564,3.966104037214 -94.308364501545,-4.704298609539 l -0.0020035343,-0.0020035343 h -0.0020035343 c -38.761157879491,-10.95179119431 -64.243510953756,-47.730456560964 -71.149511167885,-86.406425099639 l -0.0040070687,-0.02203887764 -0.0040070687,-0.02003534331 c -6.856871080903,-35.436494883236 -3.948456194401,-82.922183264252 -2.338124564451,-110.881600488817 9.043237603343,-89.376485901406 64.400184401979,-162.963643988648 147.37998539937,-188.8551495885 l 0.02404241197,-0.0080141373 0.0260459463,-0.0080141373 c 38.692000440134,-12.834268885092 80.370180425134,-10.003598376173 120.899272144565,-5.982553512813 l 7.419087628247,0.735297099532 -4.910662645647,-5.609896127219 c -6.759312282681,-7.722626382327 -17.510048313832,-12.179674701794 -29.035219527022,-15.278952809348 -11.52517121319,-3.099278107554 -23.936760184036,-4.773011499583 -34.146235605784,-6.281080128154 l -0.05609896127,-0.0080141373 -0.0581024956,-0.006010603 c -7.886613887851,-0.849755420128 -15.820744793197,-1.251224912269 -23.75189949578,-1.206127667352 z"
       id="path1436"
       inkscape:connector-curvature="0" />
  </g>
</svg>
