<?xml version="1.0" encoding="UTF-8" standalone="no"?>
<svg xmlns:rdf="http://www.w3.org/1999/02/22-rdf-syntax-ns#" xmlns="http://www.w3.org/2000/svg" version="1.1" xmlns:cc="http://creativecommons.org/ns#" xmlns:xlink="http://www.w3.org/1999/xlink" viewBox="0 0 15.84 15.84" xmlns:dc="http://purl.org/dc/elements/1.1/">
<metadata>
<rdf:RDF>
<cc:Work rdf:about="">
<dc:format>image/svg+xml</dc:format>
<dc:type rdf:resource="http://purl.org/dc/dcmitype/StillImage"/>
</cc:Work>
</rdf:RDF>
</metadata>
<defs>
<clipPath id="a" clipPathUnits="userSpaceOnUse">
<path d="m8.36 47.76c-0.608426-0.24472-1.137723-0.85818-1.575677-1.36727-1.176052-1.36707-1.819497-3.08992-2.404323-4.76273-0.933606-2.67044-1.752884-5.43078-2.265835-8.21958-0.698373-3.79692-1.5011804-7.62618-1.7181846-11.46764-0.186617-3.30353-0.4327154-6.84379 0.2740196-9.95278 0.351272-1.54527 1.665229-3.583755 2.9-4.01 1.09602-0.378348 2.886945 0.766987 4.128531 1.524755 1.885773 1.150935 3.639259 2.508935 5.297269 3.986945 4.54551 4.05204 8.81721 8.40006 13.1433 12.68228 3.05325 3.02229 6.08867 6.06284 9.1309 9.09602-8.97 4.16333-17.94 8.32667-26.91 12.49z" stroke="#000" stroke-width=".5px" fill="none"/>
</clipPath>
</defs>
<g transform="scale(.33)">
<rect height="48" width="48" y="0" x="0" fill="none"/>
<g transform="matrix(1.125,0,0,1.125,4.5,-7.3125)">
<image clip-path="url(#a)" xlink:href="data:image/png;base64,iVBORw0KGgoAAAANSUhEUgAAABUAAAAYCAYAAAAVibZIAAANJWlDQ1BJQ0MgcHJvZmlsZQAAeNqt 12k4lO/bB/DznhnGMmYYO2Fk36LshOyJyr6lZN+GmWypVEgKkSUULQgJoUQiUf3IkpAs2YqKLKUQ yTLPC6me33H8/8+b53x13uf94rqv+zg+3+u4AAhKLlQqGQUA/gHBgZbGeiR7B0cStg+YAQ9EkAGs i1sQVdfc3Az+Yy32AgIA0C3nQqWSE0NOLve+X3rVaX5fAaGkesJ/L3ygvYMjACILABxeG/0uAOBw 3eitAYDjaDA1GADxBgAON28XdwAkHABkA60t9QGQQgDAe2301QCAd93omwEAH+rmFQyA9APQEwPc fQIAsDMA9NruHkFuAHhZAHB3D3LzB8AnAYCZvz/FHQA/BACSbtTAYAACBgDk7B0cSRuffCAOQIkX gMH0z+xoGkBlDoDk3j8zkQcAXC4AuQl/ZvOWgAAAwtUR5Km4AwAAEJweAN0IjTYvDoBNAVhLptFW cmm0tZsA6CGABrJbSGDor/+FIO0A/9fzxp5/FRoBQAEgokgB6jg6HBNOd4o+AhvFcIbRgLGR6Rzz eVwsywV8Fas3WzIxmT2F4xJnGlcadwZPIx+FP2tLlsA1wWZSiHDu1psiHWInxAskuqROSRfL9MpF bbsjP7D93I57im+VL6hUqY6qJ2rUaI5rpWo/1pnSTdd7qv/FMNOoyXjO5MaeVtPFvbn7Xu7vNO+0 6LJctS6y6bHtteuz73fEHLjrNHRw+NCI89vD71xxbg/dP3h89Bz3mvD+5DPpx0l+4v854Atllvr1 yLfAuaCF4IWQ76GLR5fCfhxbPv7zxGr46sm101IRPVHIGVQ0+iwmhu4c/XlsLEMcYzzTBeYEXCLL RXwSIZk1hS2VeIk9jSOdM4PrMvcVnkzeLL6r/Ne2XBe4IZgtlEPKFb65NU8kX7RA7JZEocRtySKp Yuni6RLyHdlSuTL5coW72+9tr9hxX6lSuUqlavFBaLXqQ7UajVrNRzvrdj7Werxef7pB58mup7rP 9P7Rb8Q0RjcZPjdqNm4xaTVpY2qLf2HabvZyXwe+42KneZfFK8tuYnfKa6se616bPq6+jH67N/YD joN8g1lDTsNOIwffCr698c559PCY8Fjue9cPbh/dx8XGCyY8P3lNek9JTRVN+874fSZ/kftSOhvw lfKNOrd97t584ELQ9+BF5cWqpdAfYcvHfh5b0VipXT2xFr6utf6YRgNARFB41Fd0G6aYLpU+HOvF YM2oz6TELIGTYOHBcxN4WHnYOIni7JIcapxmXIe4g3gSecv42vgnBdgFVYS8SJeFn4sgolpiR8Tv SsxKSUqTZWrl0Nt05ZMVRndIKcYo9alIq1LVGjW4NcN2vtDm0qHseqonqn/CoMtI0Dhsd53Jsul2 M4+9afu6zPEWxpZhVvnWr22Z7HbZH3G45th0YPag0KH9zscP57o0uk66c3roeNp7nfLO9mnwHfZb 9mcPkKEYUL2PhAcmBeUGV4Y0hw4enQpbPI4+wRZOOil7Svn0rgjTyP1RB84cjvY4S44JPhd4PiI2 Iu5MfOyFlIT4xMyLV5IykpNTrqamXEpPu5xemHHrcumVwszirLKrj649ut5440V2V053bvfN7rzB /A8FE7fGCj/eni36Vjxb8uXOXOls2XT5zN2Je6MVY/cHKruqWh40VD94WFZztTblUUSd/+MD9aYN O59IPyU+XX727p/WxvtNqc8Dm61aVFr5W2ltAy/ut8e9dOwQ6RjvrOg6+cqwG989/Dq7x7dXsXet r70/9c3BAamB+cGaoahh0xGOkZG3t98FjWqOYcZa31/6cOijxMeZ8ZqJyE97Jjknh6fypskzyjPr n1u+pMwe+Cr6deZbxVz4vPECcaH/e/4iZUn9B/rH8+XknwdWRFY+r1atRayb0LhoNAA4g4ShjqM1 0TWYk3Q6dPX0kdizDEYMjYwxTOeY43B7cG0sCfgEQiLrftYOtiRiCnsqRyqnNedrrnTudJ7LvJl8 WfxZW64KOAkMC94QyiblCOdszRG5KZonli9eIHFLslDqtrSP9JRMkWyJ3J1tpfJlCuXb7+64p1ih dF+5SqVKtUotTO2Heo1GjWbtzkdaddqntNd16nc16D7Re6r/zCDaEGPYaNRk/Hx3s0nLnlbTeDOc 2Yu97fte7u8wT7JgteiyfGXVbf3aptc23Y7Lrs++3+GN48CBLCd+p6GDw4feOr87/M4lx1XYdczt vfsHj4+eBV7iGwniO+VXTJYlz/yvFJn/nSLVx9SOLR//eWIlfPXk2qn107RIiEL9ThLseWwsQ2xL 3J545gu4BFwiy0VCEmsy2+8s4crgvszzK0u2/J0luWM33fJE8kULxG+Jb6ZJiewdudJtf2WJYqVS lfID1WrVh2o16rWajzTrdj7Wrtf+K0cMm4yeGzUbt+xuNWkzfRH6cmvHvk7zLvNXFt0ne6R7bfvs +qMG5Acdh2JGFN/GjiqPXfjgPq45kTzpM+37mTxL+Ra34Lh4cTl+zZJGA9g4+wAA6FUA0mUAbDMB rHIBYmQAJJwBuAoBzFkArNUBRScIKC0qIHu0Ns8PQIAVBGAb6IEDBEESlMMPhISYImFIIfISmUAR UMaoSFQdahWthY5EN6FXMcIYB0wB5judEd1ZujK6WXpj+hz6cSwn1glbx4BlUGeIZphm1GCkMDYw yTFFMFUz45kjmd/gOHABuE8shixnWEbxLvinBDTBkzDDasGazrrGFss2R9Qg5rOrsuezz3I4cyxx +nBWcclwPef25MHyFPGK8R7lXeC7xm/MP78lW0BUIFwQEawU8iUJkwaEL23dujVChCDSIZosZiPO Jz4mUSypL3lbSk+aTXpUpkL2nJzTNkV5nPyEwj/bc3dEKborGSvLqrCrrKqOq2Wo49UbNMo1c3Ze 0jqvfVrn6K4jumQ9H31vA29DP6MA4+DdJ0yi91w0zTK7vbd6X8v+IfNvllgrQWs1Gytbql2ifalD p+O8E89B7UOezkmHa10+uXG7G3sc8yzx4fE194sjNwagKLrUyCPPguiDTUNSwkSPUY4/Cmc66Xiq 5DQt0joaddYp5sF59tgjcV0JaYnLSc7JTanylzIzgi6/z7TKarxemi2Wc+0mdwHrrcTb+KKLdzLK BMrz7slVGlR1Vbs8/FbH/bikQe9ZcCOhqaR5T1tcu9zLrs7Q7qYeah9/f/OQ+HD/27hRnQ8l4+6f hCYHPtvOcn3tm8tccF6aWa5cOU3jodEAAAVMwA1SoAP2EAJpUA0jCBZRQJyRRKQemUdJo5xRmajX aAJ6L/oCuh3DgtmPScMM0pHofOjK6X7Q69NfpH+DFcOGYJ8xEBncGaoZmRmdGEuZMEyHmO4zMzG7 MdfjOHFUXDuLNEsCywzeDF9GYCFQCL2su1jz2PBsoWyDRCPiXXYSewr7OkcQx2dOX84pLjLXHHcw 9yLPcV6E9wIfH18Rvzp/0xbbLZMCEYK8glVCFkJTpBhhceHmrQEi3CKPRd3EcGJPxAMkhCReScZK 6UmtSdfKhMtqyS7J1W87L2+tIKwwu71+R7Kir5KBsqDyikqP6kO1a+qRGl6adju1tOS1hXWIuzC6 aN05vW/6swbThuNG88bTu7/vQZlymHHv3b5Pe/9+c0sLP8tjVlnW92xe2A7arTpwOMof2Od05OCV Q43OEy6Mrgpu3u6ZHvWeX72lfDx8M/x6/PkDbChZ1E+BkkGhwS2hAkeDwlqPi5xIDJ865XC6OVIl Kj+aeDbxHPF8ehxPfFaCcuLLJI/kn6kJaarpHy9fz/S9anNdKpsuZ+bm0/zKW1duxxS73XEqM7qr VqFUue2B3EPJWrE6yXqFJzrPdjdaPCe3HGlLbs/ueNQ10k3rFerXGnAfih+peTfznvej3kTEZOH0 hy98Xz3nri+ML0kuB6xUrSM0GgDQAysIgB44QBKUw6tN+5vuN9RjCBgHzHc6I7rMX97XsU4MQgzR DNOM1owNTHJMV5nxzJHMS7gA3CcWd7wL/j3BkzDDGsS6xhZL5CLms6uyt3I4cyxxJv02vY934Zdn c0FEsPKXZYsNyb8ch0rp/W34j+Bffl+pN2iU/7H7R+5/dvvf1HqN+vD4mv9bbejAv91GFf0t98KO P3LT6TftXlPf1JuXuum3hLgpuKJ603DtmQ3FTwY2HbdMtsW9+Kc9/WVXZ+grge6mHmpveV9Mf/NA 6JD4sN+Iwdu4UZ2xc+9dP5R8XBzv/iQ06TdlMi05g/1s+6VgNuar17fdc9LzzPNfFjq/VyymL1kv zfyIXtb7KfFzfOX0Ks/q9TW2tei1pfU8WjyNBrBxXwIAACZ9CpkSSDLTN4D/3/Inh2yugQIAnEeQ oRUAEAFA0iPAZrPXADPQBwMggRtQgAwUCAT93x1p4+3GPQ4AgJ4V4KodAED9jxMR/14z2CMsGABA n0I9Fujj5R1M0qVSyR4kfYo/NSTYI1CWZBLgtk2WtENBQRkA4H8Aw2wI2gG1XRMAAAOYSURBVDjL pdXPaxxlGMDx7zszOzuTzW72R7KbpjWx/sAeFPVQFGqKiNDWFlvMwYo/wItXxR6q5lQET968iDf/ AUOgVOwlUMREhZRaD2Ldmpgmpmm23ezs7szOr8dDZjfxV03sOzzM8MJ83ofnfV5eHMeRSWdSDvoH 5Zx/TuphXe518GXtoiC6kDyVoCJT7tS9oa/W3xZkSJBUDyZGzrTOSBiH/w99uvGGIAcE2SOIvQUL crJ9Utphe9eodiN2gQJQAgaBLKAAmLanORYcpRk57GZoN/UYGADyQDGBC4AOwJx1ideD52mGGztH U/FAgm6HS0mYpIGq9R1nw+dohnd2htpaEchtQ/PbyjGETYY+FOvWPJ+FR3B3kLFmkU/Q3Da8AAyi UybDMP3kyaHhWd8zEx7FDxt3R/dF5WRzumARGAKGMBM0x17yDDOISb81x23/OFHY/Hd0TJUTsJBg ZaACDGMzQo4R8uxjkDH2MMYoWcru1wQ/nCDs/HPGxibqACHgAwHQATpkcRnApUSTYRqMUmBvM4tW XcT65RLelWOo01+h2/1/RvfHJcBN0G4EGPgM0KGExzAuY7R4wL9DqpqGKrCoY618i1s9jjl5Ad3O bKFPqELS7HESERBhEVIkpELAKD6PxC7ZX6/DTx5c78CSwKqOfXkOd+lFzE/Po9v2JnpAWZjBKL5S INJbLSfCIMKICA+KUFm7CVeb8HMNFtqwEsKawLqOfWUWd/UU5vQ0umVhGMCjqynmPa2XqIqgP4J0 AFoAsQ9SK8KPJaiW4IYDv3uwFkJDINKwL87ivjRBeuoLDKUUh1rC/GKvnBg+2D7oHsQuuC3o1Pvo qxZgoQDLG1BzwQ+SkgHopK4u4H8ziwEwbsIni8nmd8D0IO2C3oa4Cd4GeLUUfb/lYSUP7TxIK+mS kODhEeTsBMZrJ7DSJoaI8GwF9GUhchV4YLXBbIHmQFyHoAbtVUWxkYW4e/IcgicLyHvjpCaeQuna 1u4rpRjK6BzuC5m5ZqDaYLcg1QCtDrIOwQa4EURk0MkSjN+HfPAMqSP7UUr9vfm7H688JsxcAL0J lgPGbVAbIOFmqV0leC/opN5/CPNQ9u5nX5I2evmwzkAjIrUE5iIYNVAhiB5TPh1w/+WQzHnrP0EA HMfpXQMffuRJXok8jsipdCSfv+XLrWvB7u+oLhrHsQRBJO+82ZKP3/Xk1nLQm+++W61W78ft83+d +wOuBu1qqTfJ4wAAAABJRU5ErkJggg==" height="41" width="36.6" y="7.333" x="-.264"/>
<path d="m8.36 47.76c-0.608426-0.24472-1.137723-0.85818-1.575676-1.36727-1.176053-1.36707-1.819498-3.08992-2.404324-4.76273-0.933606-2.67044-1.752885-5.43078-2.265835-8.21958-0.698373-3.79692-1.5011804-7.62618-1.7181846-11.46764-0.186617-3.30353-0.4327154-6.84379 0.2740196-9.95278 0.351272-1.54527 1.665229-3.583755 2.9-4.01 1.09602-0.378348 2.886945 0.766987 4.128531 1.524755 1.885773 1.150935 3.639259 2.508935 5.297269 3.986945 4.54551 4.05204 8.81721 8.40006 13.1433 12.68228 3.05325 3.02229 6.08867 6.06284 9.1309 9.09602-8.97 4.16333-17.94 8.32667-26.91 12.49z" stroke="#000" stroke-width="1.5px" fill="none"/>
</g>
</g>
</svg>
