<?xml version="1.0" encoding="UTF-8" standalone="no"?>
<svg xmlns:rdf="http://www.w3.org/1999/02/22-rdf-syntax-ns#" xmlns="http://www.w3.org/2000/svg" version="1.1" xmlns:cc="http://creativecommons.org/ns#" xmlns:xlink="http://www.w3.org/1999/xlink" viewBox="0 0 24.727554 26.381055" xmlns:dc="http://purl.org/dc/elements/1.1/">
<metadata>
<rdf:RDF>
<cc:Work rdf:about="">
<dc:format>image/svg+xml</dc:format>
<dc:type rdf:resource="http://purl.org/dc/dcmitype/StillImage"/>
</cc:Work>
</rdf:RDF>
</metadata>
<defs>
<linearGradient id="b" y2="-.473952" gradientUnits="userSpaceOnUse" x2="-16.4355" gradientTransform="matrix(-.42698 -.87201 .87201 -.42698 11.5331 -7.26288)" y1="-1.11146" x1="-30.5127">
<stop stop-color="#376796" offset="0"/>
<stop stop-color="#b0dde2" offset="1"/>
</linearGradient>
<radialGradient id="a" cx="-293.812" gradientUnits="userSpaceOnUse" cy="-2729.78" r="9.41594" gradientTransform="matrix(1.20758 .0165454 .27747 1.03554 1573.42 3294.03)">
<stop stop-color="#fff" offset="0"/>
<stop stop-color="#5eba69" offset="1"/>
</radialGradient>
</defs>
<g transform="matrix(.78125 0 0 .78125 0.04394 0.38779)">
<path d="m13.0063 24.4482 17.4402-8.5396c0.9627-0.4714 0.6086-4.956-1.5127-9.28811-2.1212-4.33215-5.2102-6.87946-6.1729-6.408075l-17.44024 8.539575" stroke="#000" stroke-width="1.28" fill="url(#b)"/>
<path stroke-linejoin="round" d="m459.326 449.367 10.518-5.119c1.234 0.647 1.542 1.015 2.233 2.513" transform="matrix(1.28,0,0,1.28,-578.362,-566.08)" stroke="#fff" stroke-linecap="round" stroke-width="1px" fill="none"/>
<path d="m15.3452 14.3489c-1.8973-17.3835-6.99392-17.09488-6.27764-7.58847" stroke="#000" stroke-width="1.28" fill="none"/>
<circle stroke-linejoin="round" stroke-width="1.138871" transform="matrix(1.12392 0 0 1.12392 .83338 -2.58525)" stroke="#2e3436" cy="14.875" cx="12.875" r="1.3125" fill="#c8c8c8"/>
<path style="color:#000000" d="m456.281 449.062c-0.068 0.008-0.127 0.034-0.187 0.063-0.961 0.465-0.457 3.569 1.156 6.937 0.988 2.063 2.18 3.737 3.156 4.626-0.001 0.01 0.001 0.02 0 0.031-0.069 0.83-0.759 1.709-1.028 2.5-10.092 0.32-8.962 4.477 0.653 4.523 18.542 0.088 18.215-4.476 2.844-4.554-0.273-0.656-0.558-1.324-0.781-2 0.727-0.738 0.168-3.655-1.344-6.813s-3.442-5.424-4.469-5.313z" transform="matrix(1.28,0,0,1.28,-578.362,-566.08)" stroke="#000" stroke-width="1.000001" fill="url(#a)"/>
</g>
</svg>
