<?xml version="1.0" encoding="UTF-8" standalone="no"?>
<svg xmlns:rdf="http://www.w3.org/1999/02/22-rdf-syntax-ns#" xmlns="http://www.w3.org/2000/svg" version="1.1" xmlns:cc="http://creativecommons.org/ns#" viewBox="0 0 24 24" xmlns:dc="http://purl.org/dc/elements/1.1/">
<metadata>
<rdf:RDF>
<cc:Work rdf:about="">
<dc:format>image/svg+xml</dc:format>
<dc:type rdf:resource="http://purl.org/dc/dcmitype/StillImage"/>
</cc:Work>
</rdf:RDF>
</metadata>
<g transform="matrix(0,1,1,0,0,0)">
<g stroke-linejoin="round" stroke="#222" fill="#98b6d3">
<rect y="6.5" width="3" x=".5" height="15"/>
<rect y="8.5" width="3" x="10.5" height="9"/>
<rect y="5.5" width="3" x="20.5" height="18"/>
</g>
<g stroke="#e2e8f0" fill="none">
<path d="m1.5 20v-12.5h1.5"/>
<path d="m11.5 16v-6.5h1.5"/>
<path d="m21.5 22v-15.5h1.5"/>
</g>
<g stroke="#c80000" fill="none">
<path d="m3.5 0v12"/>
<path d="m10.5 0v12"/>
<path d="m13.5 0v12"/>
<path d="m20.5 0v12"/>
</g>
<path d="m6 3-2-1.5 2-1.5v1h2v-1l2 1.5-2 1.5v-1h-2z"/>
<path d="m16 3-2-1.5 2-1.5v1h2v-1l2 1.5-2 1.5v-1h-2z"/>
</g>
</svg>
