<?xml version="1.0" encoding="UTF-8" standalone="no"?>
<svg xmlns:rdf="http://www.w3.org/1999/02/22-rdf-syntax-ns#" xmlns="http://www.w3.org/2000/svg" version="1.1" xmlns:cc="http://creativecommons.org/ns#" xmlns:xlink="http://www.w3.org/1999/xlink" viewBox="0 0 24 24" xmlns:dc="http://purl.org/dc/elements/1.1/">
<metadata>
<rdf:RDF>
<cc:Work rdf:about="">
<dc:format>image/svg+xml</dc:format>
<dc:type rdf:resource="http://purl.org/dc/dcmitype/StillImage"/>
</cc:Work>
</rdf:RDF>
</metadata>
<defs>
<linearGradient id="a">
<stop stop-color="#fff" offset="0"/>
<stop stop-color="#98b6d3" offset="1"/>
</linearGradient>
<linearGradient id="c" y2="-1" xlink:href="#a" gradientUnits="userSpaceOnUse" x2="-2" y1="1" x1="2"/>
<linearGradient id="b" y2="1" xlink:href="#a" gradientUnits="userSpaceOnUse" x2="3" y1="-1" x1="-3"/>
<linearGradient id="e" y2="-1" xlink:href="#a" gradientUnits="userSpaceOnUse" x2="-1" y1="1" x1="1"/>
<linearGradient id="d" y2="1" xlink:href="#a" gradientUnits="userSpaceOnUse" x2="2" y1="-1" x1="-2"/>
<g id="h">
<rect stroke-linejoin="round" height="10" width="6" stroke="#222" y="-5" x="-3" fill="none"/>
<rect height="8" width="4" stroke="url(#b)" y="-4" x="-2" fill="url(#c)"/>
</g>
<g id="g">
<rect stroke-linejoin="round" height="16" width="6" stroke="#222" y="-8" x="-3" fill="none"/>
<rect height="14" width="4" stroke="url(#b)" y="-7" x="-2" fill="url(#c)"/>
</g>
<g id="f">
<rect stroke-linejoin="round" height="12" width="4" stroke="#222" y="-6" x="-2" fill="none"/>
<rect height="10" width="2" stroke="url(#d)" y="-5" x="-1" fill="url(#e)"/>
</g>
</defs>
<g transform="matrix(0,1,1,0,0,0)">
<use xlink:href="#h" transform="translate(3.5,12.5)"/>
<use xlink:href="#g" transform="translate(12.5,14.5)"/>
<use xlink:href="#f" transform="translate(20.5,15.5)"/>
<g stroke="#c80000" fill="none">
<path d="m0.5 0v12"/>
<path d="m9.5 0v12"/>
<path d="m18.5 0v12"/>
</g>
<path d="m3 3-2-1.5 2-1.5v1h4v-1l2 1.5-2 1.5v-1h-4z"/>
<path d="m12 3-2-1.5 2-1.5v1h4v-1l2 1.5-2 1.5v-1h-4z"/>
</g>
</svg>
