<?xml version="1.0" encoding="UTF-8" standalone="no"?>
<svg xmlns:rdf="http://www.w3.org/1999/02/22-rdf-syntax-ns#" xmlns="http://www.w3.org/2000/svg" version="1.1" xmlns:cc="http://creativecommons.org/ns#" viewBox="0 0 21 19.147344" xmlns:dc="http://purl.org/dc/elements/1.1/">
<metadata>
<rdf:RDF>
<cc:Work rdf:about="">
<dc:format>image/svg+xml</dc:format>
<dc:type rdf:resource="http://purl.org/dc/dcmitype/StillImage"/>
</cc:Work>
</rdf:RDF>
</metadata>
<g transform="translate(-860,-114.00003)">
<rect style="color:#000000" height="16.84721" width="10.66002" stroke="#00f" stroke-dasharray="2.3001337, 2.3001337" y="115.1501" x="865.1501" stroke-width="2.3001337" fill="none"/>
<path style="color:#000000" stroke-width=".4" d="m860 120v7.8525l3.9906-3.9906-3.9906-3.8619z"/>
<path style="color:#000000" stroke-width=".4" d="m881 120v7.8525l-3.9906-3.9906 3.9906-3.8619z"/>
</g>
</svg>
