<?xml version="1.0" encoding="UTF-8" standalone="no"?>
<svg xmlns:rdf="http://www.w3.org/1999/02/22-rdf-syntax-ns#" xmlns="http://www.w3.org/2000/svg" version="1.1" xmlns:cc="http://creativecommons.org/ns#" xmlns:xlink="http://www.w3.org/1999/xlink" viewBox="0 0 23.99868 23.99998" xmlns:dc="http://purl.org/dc/elements/1.1/">
<metadata>
<rdf:RDF>
<cc:Work rdf:about="">
<dc:format>image/svg+xml</dc:format>
<dc:type rdf:resource="http://purl.org/dc/dcmitype/StillImage"/>
</cc:Work>
</rdf:RDF>
</metadata>
<defs>
<linearGradient id="b" y2="214.9016" xlink:href="#d" gradientUnits="userSpaceOnUse" x2="16.94643" gradientTransform="matrix(1,0,0,1.66306,-4.001611,-151.8935)" y1="219.0517" x1="22.00903"/>
<linearGradient id="e" y2="219.0135" xlink:href="#c" gradientUnits="userSpaceOnUse" x2="20.6591" gradientTransform="translate(-.93075)" y1="215.0097" x1="17.62746"/>
<linearGradient id="d">
<stop stop-color="#fff" offset="0"/>
<stop stop-color="#98b6d3" offset="1"/>
</linearGradient>
<linearGradient id="a" y2="218.8026" xlink:href="#d" gradientUnits="userSpaceOnUse" x2="17.49814" gradientTransform="matrix(.752624 0 0 .996445 .561763 -7.22312)" y1="213.2351" x1="14.82746"/>
<linearGradient id="c">
<stop stop-color="#ffbf00" offset="0"/>
<stop stop-color="#fff" offset="1"/>
</linearGradient>
<linearGradient id="f" y2="213.663" xlink:href="#c" gradientUnits="userSpaceOnUse" x2="15.9855" gradientTransform="matrix(.75262 0 0 .59916 3.63262 86.9905)" y1="219.5232" x1="19.47374"/>
</defs>
<g transform="translate(-5.00962 -205.0097)">
<path stroke-linejoin="round" style="color:#000000" d="m11.5083 213.51-2 6.892m10-11.892 5 4v8m-10.9291-6.002h7.9986v5.002h-7.9986v-5.002z" stroke="#000" stroke-linecap="round" stroke-miterlimit="0" fill="none"/>
<path fill-rule="evenodd" fill="#ce0000" d="m24.0083 221.0097h1-1z"/>
<rect stroke-linejoin="round" style="color:#000000" fill-rule="evenodd" height="3.00379" width="6.00072" stroke="url(#f)" stroke-linecap="round" stroke-miterlimit="0" y="215.51" x="14.5775" stroke-width="1.000001" fill="url(#e)"/>
<g stroke-linejoin="round" stroke-miterlimit="0">
<rect style="color:#000000" height="6.999122" width="7.99868" stroke="#000" y="205.5097" x="10.5083" fill="none"/>
<rect style="color:#000000" fill-rule="evenodd" height="4.995474" width="6.00072" stroke="url(#a)" stroke-linecap="round" y="206.512" x="11.50669" stroke-width="1.0000008" fill="url(#b)"/>
</g>
<g stroke-linejoin="round" stroke-miterlimit="0" transform="translate(-4.99868 15.99998)">
<rect style="color:#000000" height="6.999122" width="7.99868" stroke="#000" y="205.5097" x="10.5083" fill="none"/>
<rect style="color:#000000" fill-rule="evenodd" height="4.995474" width="6.00072" stroke="url(#a)" stroke-linecap="round" y="206.512" x="11.50669" stroke-width="1.0000008" fill="url(#b)"/>
</g>
<g stroke-linejoin="round" stroke-miterlimit="0" transform="translate(10.00132 16.000858)">
<rect style="color:#000000" height="6.999122" width="7.99868" stroke="#000" y="205.5097" x="10.5083" fill="none"/>
<rect style="color:#000000" fill-rule="evenodd" height="4.995474" width="6.00072" stroke="url(#a)" stroke-linecap="round" y="206.512" x="11.50669" stroke-width="1.0000008" fill="url(#b)"/>
</g>
</g>
</svg>
