<?xml version="1.0" encoding="UTF-8" standalone="no"?>
<svg xmlns:rdf="http://www.w3.org/1999/02/22-rdf-syntax-ns#" xmlns="http://www.w3.org/2000/svg" version="1.1" xmlns:cc="http://creativecommons.org/ns#" xmlns:xlink="http://www.w3.org/1999/xlink" viewBox="0 0 16.0483 16.010037" xmlns:dc="http://purl.org/dc/elements/1.1/">
<metadata>
<rdf:RDF>
<cc:Work rdf:about="">
<dc:format>image/svg+xml</dc:format>
<dc:type rdf:resource="http://purl.org/dc/dcmitype/StillImage"/>
</cc:Work>
</rdf:RDF>
</metadata>
<defs>
<linearGradient id="b" y2="78.52254" gradientUnits="userSpaceOnUse" x2="493.3302" y1="77.8489" x1="491.4307">
<stop stop-color="#d7d7d7" offset="0"/>
<stop offset="1"/>
</linearGradient>
<linearGradient id="a" y2="88.23264" gradientUnits="userSpaceOnUse" x2="499.0386" gradientTransform="matrix(1 0 0 .900774 0 8.915579)" y1="83.8125" x1="494.3125">
<stop stop-color="#fffdf8" offset="0"/>
<stop stop-color="#cdccc7" offset="1"/>
</linearGradient>
<linearGradient id="c" y2="85.67345" gradientUnits="userSpaceOnUse" x2="495.948" y1="74.94392" x1="482.6295">
<stop stop-color="#f3ff49" offset="0"/>
<stop stop-color="#ffa01e" offset="1"/>
</linearGradient>
<linearGradient id="d" y2="90.93561" gradientUnits="userSpaceOnUse" x2="497.2314" y1="83.41934" x1="490">
<stop stop-color="#5a5a5a" offset="0"/>
<stop offset="1"/>
</linearGradient>
</defs>
<g transform="translate(-484.9517,-74.935628)">
<g transform="translate(-.0483 -.054332)">
<rect stroke-linejoin="round" style="color:#000000" fill-rule="evenodd" rx=".8838835" ry=".8838835" height="13.99545" width="12" stroke="#000" stroke-linecap="square" y="76.50455" x="485.5" fill="url(#c)"/>
<path d="m486.4517 89.43563v-12h10" stroke="#e6bc00" stroke-linecap="square" stroke-width="1px" fill="none"/>
<path style="color:#000000" d="m495 79c0 1.10678-1.6161 0.5-3 0.5s-3 0.60678-3-0.5 1.6131-3.51004 2.997-3.51004c1.3838 0 3.003 2.40326 3.003 3.51004z" fill-rule="evenodd" stroke="#000" stroke-linecap="square" stroke-width=".9999994" fill="url(#b)"/>
<path d="m494.0715 77.5h-2.1429" stroke="#000" stroke-linecap="round" stroke-width="1.0000001px" fill="none"/>
</g>
<rect stroke-linejoin="round" style="color:#000000" fill-rule="evenodd" rx=".9722718" ry=".9722717" height="9.007737" width="10" stroke="url(#d)" stroke-linecap="square" y="81.42787" x="490.5" stroke-width=".9999999" fill="url(#a)"/>
<path d="m495 108h-1v-1h-1v-1h2l-0.0483-3.0543h1l0.0483 3.0543h2v1h-1v1h-1v1h-1v-1z" fill-rule="evenodd" transform="translate(0,-20.01004)"/>
</g>
</svg>
