<?xml version="1.0" encoding="UTF-8" standalone="no"?>
<svg xmlns:rdf="http://www.w3.org/1999/02/22-rdf-syntax-ns#" xmlns="http://www.w3.org/2000/svg" version="1.1" xmlns:cc="http://creativecommons.org/ns#" xmlns:xlink="http://www.w3.org/1999/xlink" viewBox="0 0 15.999839 15.998968" xmlns:dc="http://purl.org/dc/elements/1.1/">
<metadata>
<rdf:RDF>
<cc:Work rdf:about="">
<dc:format>image/svg+xml</dc:format>
<dc:type rdf:resource="http://purl.org/dc/dcmitype/StillImage"/>
</cc:Work>
</rdf:RDF>
</metadata>
<defs>
<linearGradient id="c" y2="184.8026" gradientUnits="userSpaceOnUse" x2="979.8044" y1="182.4686" x1="974.1975">
<stop stop-color="#fff" offset="0"/>
<stop stop-color="#aaa" offset="1"/>
</linearGradient>
<linearGradient id="d" y2="179.1932" gradientUnits="userSpaceOnUse" x2="990.5735" gradientTransform="translate(.0706497 -.23015)" y1="185.1891" x1="989.8774">
<stop offset="0"/>
<stop stop-opacity="0" offset="1"/>
</linearGradient>
<linearGradient id="a">
<stop stop-color="#5a5a5a" offset="0"/>
<stop offset="1"/>
</linearGradient>
<linearGradient id="f" y2="174.9393" gradientUnits="userSpaceOnUse" x2="974.4352" gradientTransform="matrix(.7 0 0 1 311.2 8.5)" y1="172.4419" x1="974.4352">
<stop stop-color="#f3ff49" offset="0"/>
<stop stop-color="#ffa01e" offset="1"/>
</linearGradient>
<linearGradient id="b" y2="181.7098" xlink:href="#a" gradientUnits="userSpaceOnUse" x2="977.9335" y1="178.3186" x1="968.8881"/>
<linearGradient id="e" y2="185" xlink:href="#a" gradientUnits="userSpaceOnUse" x2="992.7362" y1="181.5609" x1="994.1533"/>
</defs>
<g transform="matrix(1 0 0 .994505 -984.95908 -178.88257)">
<path stroke-linejoin="round" style="color:#000000" d="m969.5 182.5h11l-4-5h-11l4 5z" fill-rule="evenodd" transform="matrix(1,0,0,1.004834,19.959,12.07373)" stroke="url(#b)" stroke-linecap="square" stroke-miterlimit="0" stroke-width=".9999474" fill="url(#c)"/>
<g transform="rotate(-90,994,185)">
<path d="m965.5 174.5 4 2v-4l-4 2z" fill-rule="evenodd" transform="translate(20,8)" fill="#fff"/>
<path fill-rule="evenodd" fill="url(#f)" d="m989.5731 180.459h7.5362v4h-7.5362c0.5-1 0.5-3 0-4z"/>
<path stroke-linejoin="round" d="m998.0682 180.459h-9.5l-3.0682 2.041 3 2 9.6142-0.041c0.6968-1.102 0.6872-2.9601-0.046-4z" stroke="url(#e)" stroke-linecap="round" stroke-width="1.002759px" fill="none"/>
<path stroke-linejoin="round" d="m989.0707 184.459c0.5-0.6892 0.5-3 0-4" stroke="url(#d)" stroke-linecap="round" stroke-width="1.0027586px" fill="none"/>
<path fill-rule="evenodd" fill="#c80000" d="m996.6069 180.459h1.5073c0.5024 1 0.5024 3 0 4h-1.5073v-4z"/>
</g>
<rect style="color:#000000" fill-rule="evenodd" height="1.004834" width="1" y="180.8858" x="989.959" fill="#fff"/>
<path d="m990.459 183.3979v5.0242" stroke="#fff" stroke-linecap="round" stroke-width="1.0027589px" fill="none"/>
</g>
</svg>
