<?xml version="1.0" encoding="UTF-8" standalone="no"?>
<svg xmlns:rdf="http://www.w3.org/1999/02/22-rdf-syntax-ns#" xmlns="http://www.w3.org/2000/svg" version="1.1" xmlns:cc="http://creativecommons.org/ns#" viewBox="0 0 16.102016 16" xmlns:dc="http://purl.org/dc/elements/1.1/">
<metadata>
<rdf:RDF>
<cc:Work rdf:about="">
<dc:format>image/svg+xml</dc:format>
<dc:type rdf:resource="http://purl.org/dc/dcmitype/StillImage"/>
</cc:Work>
</rdf:RDF>
</metadata>
<g transform="translate(45.04361 -175)">
<path stroke-linejoin="round" d="m-44.41296 176.5635c-0.52712 3.4524 1.3869 9.5301 7.3869 9.5301s7.98876-6.0777 7.51588-9.5301m-12.93758 9.634h10.89258" stroke="#646464" stroke-linecap="round" stroke-miterlimit="0" stroke-width="1.0000002" fill="none"/>
<rect style="color:#000000" height="16" width="16" y="175" x="-45" fill="none"/>
<rect stroke-linejoin="round" style="color:#000000" fill-rule="evenodd" fill-opacity=".3921569" transform="rotate(-89.99984)" height="4.950177" width="4.966394" stroke="#00f" stroke-linecap="round" stroke-miterlimit="0" y="-39.47938" x="-188.4831" stroke-width="1.0000015" fill="#6464ff"/>
<rect stroke-linejoin="round" style="color:#000000" fill-rule="evenodd" fill-opacity=".3921569" rx="1.008872" ry="1.008872" height="2.017743" width="2.067648" stroke="#00f" stroke-linecap="round" stroke-miterlimit="0" y="185.2228" x="-44.54361" stroke-width="1.0000007" fill="#fff"/>
<rect stroke-linejoin="round" style="color:#000000" fill-rule="evenodd" fill-opacity=".3921569" rx="1.011026" ry="1.011026" height="2.026662" width="2.022052" stroke="#00f" stroke-linecap="round" stroke-miterlimit="0" y="185.1983" x="-31.53185" stroke-width="1.0000007" fill="#fff"/>
</g>
</svg>
