<?xml version="1.0" encoding="UTF-8" standalone="no"?>
<svg xmlns:rdf="http://www.w3.org/1999/02/22-rdf-syntax-ns#" xmlns="http://www.w3.org/2000/svg" version="1.1" xmlns:cc="http://creativecommons.org/ns#" xmlns:xlink="http://www.w3.org/1999/xlink" viewBox="0 0 16 16" xmlns:dc="http://purl.org/dc/elements/1.1/">
<metadata>
<rdf:RDF>
<cc:Work rdf:about="">
<dc:format>image/svg+xml</dc:format>
<dc:type rdf:resource="http://purl.org/dc/dcmitype/StillImage"/>
</cc:Work>
</rdf:RDF>
</metadata>
<defs>
<linearGradient id="b">
<stop stop-color="#5a5a5a" offset="0"/>
<stop offset="1"/>
</linearGradient>
<linearGradient id="c" y2="187" xlink:href="#b" gradientUnits="userSpaceOnUse" x2="-30.05" gradientTransform="matrix(1.003597 0 0 1 .158094 0)" y1="187" x1="-43.95"/>
<linearGradient id="a" y2="187" xlink:href="#b" gradientUnits="userSpaceOnUse" x2="-30.05" gradientTransform="matrix(1.003713 0 0 1 .163202 0)" y1="187" x1="-43.95"/>
<linearGradient id="d" y2="180.95" gradientUnits="userSpaceOnUse" x2="-32.95787" gradientTransform="matrix(1.003597 0 0 1 .158094 0)" y1="175.9331" x1="-34.94375">
<stop stop-color="#fff" offset="0"/>
<stop stop-color="#98b6d3" offset="1"/>
</linearGradient>
</defs>
<g transform="translate(45,-175)">
<rect style="color:#000000" height="16" width="16" y="175" x="-45" fill="none"/>
<path stroke-linejoin="round" d="m-43.5 182.5h1" stroke="#000" stroke-linecap="square" stroke-miterlimit="0" stroke-width=".9999998" fill="none"/>
<path stroke-linejoin="round" style="color:#000000" d="m-43.49833 184.5h13.04827v5l-13.04827-5z" fill-rule="evenodd" stroke="url(#a)" stroke-linecap="round" stroke-miterlimit="0" stroke-width=".9" fill="url(#a)"/>
<path stroke-linejoin="round" style="color:#000000" d="m-43.49838 180.5h13.04676v-5l-13.04676 5z" fill-rule="evenodd" stroke="url(#c)" stroke-linecap="round" stroke-miterlimit="0" stroke-width=".8999999" fill="url(#d)"/>
<path stroke-linejoin="round" d="m-43.5 182.5h1" transform="translate(2.959 -.0391199)" stroke="#000" stroke-linecap="square" stroke-miterlimit="0" stroke-width=".9999998" fill="none"/>
<path stroke-linejoin="round" d="m-43.5 182.5h1" transform="translate(5.959 -.0391199)" stroke="#000" stroke-linecap="square" stroke-miterlimit="0" stroke-width=".9999998" fill="none"/>
<path stroke-linejoin="round" d="m-43.5 182.5h1" transform="translate(8.959 -.0391199)" stroke="#000" stroke-linecap="square" stroke-miterlimit="0" stroke-width=".9999998" fill="none"/>
<path stroke-linejoin="round" d="m-43.5 182.5h1" transform="translate(11.959 -.0391199)" stroke="#000" stroke-linecap="square" stroke-miterlimit="0" stroke-width=".9999998" fill="none"/>
</g>
</svg>
