<?xml version="1.0" encoding="UTF-8" standalone="no"?>
<svg xmlns:rdf="http://www.w3.org/1999/02/22-rdf-syntax-ns#" xmlns="http://www.w3.org/2000/svg" version="1.1" xmlns:cc="http://creativecommons.org/ns#" xmlns:xlink="http://www.w3.org/1999/xlink" viewBox="0 0 16 16" xmlns:dc="http://purl.org/dc/elements/1.1/">
<metadata>
<rdf:RDF>
<cc:Work rdf:about="">
<dc:format>image/svg+xml</dc:format>
<dc:type rdf:resource="http://purl.org/dc/dcmitype/StillImage"/>
</cc:Work>
</rdf:RDF>
</metadata>
<defs>
<linearGradient id="e" y2="186.1308" xlink:href="#a" gradientUnits="userSpaceOnUse" x2="-35.44985" gradientTransform="matrix(0,1.686539,-1.016949,0,148.1771,249.4699)" y1="186.1107" x1="-43.56253"/>
<linearGradient id="a">
<stop stop-color="#5a5a5a" offset="0"/>
<stop offset="1"/>
</linearGradient>
<linearGradient id="c" y2="184.4165" gradientUnits="userSpaceOnUse" x2="-32.04113" y1="186.8153" x1="-36.94574">
<stop stop-color="#ffbf00" offset="0"/>
<stop stop-color="#fff" offset="1"/>
</linearGradient>
<linearGradient id="d" y2="187" xlink:href="#a" gradientUnits="userSpaceOnUse" x2="-30.05" gradientTransform="matrix(0,1.007194,-1.016949,0,148.1771,220.2629)" y1="187" x1="-43.95"/>
<linearGradient id="b" y2="178.6575" xlink:href="#a" gradientUnits="userSpaceOnUse" x2="-33.69472" gradientTransform="rotate(90,-37.4946,182.5022)" y1="187.863" x1="-37.33073"/>
</defs>
<g transform="translate(45,-175)">
<rect style="color:#000000" height="16" width="16" y="175" x="-45" fill="none"/>
<path stroke-linejoin="round" d="m-37.49238 176.4968v1" stroke="#000" stroke-linecap="square" stroke-miterlimit="0" stroke-width=".9999998" fill="none"/>
<path stroke-linejoin="round" style="color:#000000" d="m-39.45 176.45v13.0935h-5.08475l5.08475-13.0935z" fill-rule="evenodd" stroke="url(#d)" stroke-linecap="round" stroke-miterlimit="0" stroke-width=".8999999" fill="url(#e)"/>
<path stroke-linejoin="round" style="color:#000000" d="m-35.49238 176.4968v13h5l-5-13z" fill-rule="evenodd" stroke="url(#b)" stroke-linecap="round" stroke-miterlimit="0" stroke-width="1.0000006" fill="url(#c)"/>
<path stroke-linejoin="round" d="m-37.49238 176.4968v1" transform="translate(-.0486211 2.96407)" stroke="#000" stroke-linecap="square" stroke-miterlimit="0" stroke-width=".9999998" fill="none"/>
<path stroke-linejoin="round" d="m-37.49238 176.4968v1" transform="translate(-.0486211 5.96407)" stroke="#000" stroke-linecap="square" stroke-miterlimit="0" stroke-width=".9999998" fill="none"/>
<path stroke-linejoin="round" d="m-37.49238 176.4968v1" transform="translate(-.0486211 8.96407)" stroke="#000" stroke-linecap="square" stroke-miterlimit="0" stroke-width=".9999998" fill="none"/>
<path stroke-linejoin="round" d="m-37.49238 176.4968v1" transform="translate(-.0486211 11.96407)" stroke="#000" stroke-linecap="square" stroke-miterlimit="0" stroke-width=".9999998" fill="none"/>
</g>
</svg>
