<?xml version="1.0" encoding="UTF-8" standalone="no"?>
<svg xmlns:rdf="http://www.w3.org/1999/02/22-rdf-syntax-ns#" xmlns="http://www.w3.org/2000/svg" version="1.1" xmlns:cc="http://creativecommons.org/ns#" xmlns:xlink="http://www.w3.org/1999/xlink" viewBox="0 0 15.999919 16" xmlns:dc="http://purl.org/dc/elements/1.1/">
<metadata>
<rdf:RDF>
<cc:Work rdf:about="">
<dc:format>image/svg+xml</dc:format>
<dc:type rdf:resource="http://purl.org/dc/dcmitype/StillImage"/>
</cc:Work>
</rdf:RDF>
</metadata>
<defs>
<linearGradient id="a" y2="181.7098" gradientUnits="userSpaceOnUse" x2="977.9335" y1="178.3186" x1="968.8881">
<stop stop-color="#5a5a5a" offset="0"/>
<stop offset="1"/>
</linearGradient>
<linearGradient id="b" y2="184.8026" gradientUnits="userSpaceOnUse" x2="979.8044" y1="182.4686" x1="974.1975">
<stop stop-color="#fff" offset="0"/>
<stop stop-color="#aaa" offset="1"/>
</linearGradient>
</defs>
<g transform="matrix(.997444 0 0 1 -962.49264 -164)">
<path stroke-linejoin="round" style="color:#000000" d="m969.5 182.5h11l-4-5h-11l4 5z" fill-rule="evenodd" transform="translate(-.0410002 -11.03912)" stroke="url(#a)" stroke-linecap="square" stroke-miterlimit="0" stroke-width=".9999474" fill="url(#b)"/>
<rect style="color:#000000" height="16" width="16" y="164" x="965" fill="none"/>
<path fill-rule="evenodd" d="m973.5 167 2.5 3h-2v5l-1 1v-6h-2l2.5-3z"/>
<path stroke-linejoin="round" d="m965.5 173.5h10l4 4h-10l-4-4z" stroke="#fff" stroke-linecap="round" stroke-width="1.0012804px" fill="none"/>
<rect style="color:#000000" fill-rule="evenodd" height="1" width="1" y="173" x="965"/>
<rect style="color:#000000" fill-rule="evenodd" transform="translate(1.959 1.96088)" height="1" width="1" y="173" x="965"/>
<rect style="color:#000000" fill-rule="evenodd" transform="translate(3.959 3.96088)" height="1" width="1" y="173" x="965"/>
<rect style="color:#000000" fill-rule="evenodd" transform="translate(3.959 3.96088)" height="1" width="1" y="173" x="965"/>
<rect style="color:#000000" fill-rule="evenodd" transform="translate(3.959 3.96088)" height="1" width="1" y="173" x="965"/>
<rect style="color:#000000" fill-rule="evenodd" transform="translate(3.959 3.96088)" height="1" width="1" y="173" x="965"/>
<rect style="color:#000000" fill-rule="evenodd" transform="translate(3.959 3.96088)" height="1" width="1" y="173" x="965"/>
<rect style="color:#000000" fill-rule="evenodd" transform="translate(3.959 3.96088)" height="1" width="1" y="173" x="965"/>
<rect style="color:#000000" fill-rule="evenodd" transform="translate(1.959 1.96088)" height="1" width="1" y="173" x="965"/>
<rect style="color:#000000" fill-rule="evenodd" height="1" width="1" y="172.9609" x="970.959"/>
<rect style="color:#000000" fill-rule="evenodd" height="1" width="1" y="172.9609" x="970.959"/>
<rect style="color:#000000" fill-rule="evenodd" height="1" width="1" y="172.9609" x="970.959"/>
<rect style="color:#000000" fill-rule="evenodd" transform="translate(-0.041 -.03912)" height="1" width="1" y="173" x="965"/>
<rect style="color:#000000" fill-rule="evenodd" transform="translate(-0.041 -.03912)" height="1" width="1" y="173" x="965"/>
</g>
</svg>
