<?xml version="1.0" encoding="UTF-8" standalone="no"?>
<svg xmlns:rdf="http://www.w3.org/1999/02/22-rdf-syntax-ns#" xmlns="http://www.w3.org/2000/svg" version="1.1" xmlns:cc="http://creativecommons.org/ns#" xmlns:xlink="http://www.w3.org/1999/xlink" viewBox="0 0 16 16" xmlns:dc="http://purl.org/dc/elements/1.1/">
<metadata>
<rdf:RDF>
<cc:Work rdf:about="">
<dc:format>image/svg+xml</dc:format>
<dc:type rdf:resource="http://purl.org/dc/dcmitype/StillImage"/>
</cc:Work>
</rdf:RDF>
</metadata>
<defs>
<linearGradient id="c" y2="293" gradientUnits="userSpaceOnUse" x2="76.13622" gradientTransform="translate(41.00246,10.00003)" y1="293" x1="70">
<stop stop-color="#fff" offset="0"/>
<stop stop-color="#98b6d3" offset="1"/>
</linearGradient>
<linearGradient id="b" y2="307.8311" gradientUnits="userSpaceOnUse" x2="80.62299" y1="311.4508" x1="83.82937">
<stop stop-color="#8ab3df" offset="0"/>
<stop stop-color="#fff" offset="1"/>
</linearGradient>
<linearGradient id="a" y2="309.5" gradientUnits="userSpaceOnUse" x2="81.92466" y1="306.8306" x1="79.59917">
<stop stop-color="#5a5a5a" offset="0"/>
<stop offset="1"/>
</linearGradient>
</defs>
<g transform="translate(-110.00246,-300)">
<path stroke-linejoin="round" style="color:#000000" d="m117.5025 304.5h3l0.0153-3.0287" stroke-opacity=".9942363" stroke="#bebebe" stroke-linecap="round" stroke-width=".9999995" fill="none"/>
<path stroke-linejoin="round" style="color:#000000" d="m111.5178 310.5154 8.9847-0.0154v-6h-3" stroke-opacity=".9942363" stroke="#bebebe" stroke-linecap="round" stroke-width=".999999" fill="none"/>
<path stroke-linejoin="round" style="color:#000000" d="m117.5025 304.5h-6v6" fill-rule="evenodd" stroke="#000" stroke-linecap="round" stroke-width=".9999991" fill="#fff"/>
<path stroke-linejoin="round" style="color:#000000" d="m120.5025 301.5h-9v3h6" fill-rule="evenodd" stroke="#000" stroke-linecap="round" stroke-width=".9999996" fill="url(#c)"/>
<rect style="color:#000000" transform="translate(40.00246)" height="16" width="16" y="300" x="70" fill="none"/>
<circle stroke-linejoin="round" style="color:#000000" stroke-width=".9999996" stroke-opacity=".9942363" fill-rule="evenodd" stroke-linecap="round" transform="translate(39.50246 .5)" stroke="url(#a)" cy="309.5" cx="82.5" r="3.5" fill="url(#b)"/>
<path d="m116.5025 315.5 3-3" stroke="#000" stroke-width="1px" fill="none"/>
<path d="m121.5025 300.5-11 11" stroke="#c80000" stroke-linecap="round" stroke-width=".9" fill="none"/>
</g>
</svg>
