<?xml version="1.0" encoding="UTF-8" standalone="no"?>
<svg xmlns:rdf="http://www.w3.org/1999/02/22-rdf-syntax-ns#" xmlns="http://www.w3.org/2000/svg" version="1.1" xmlns:cc="http://creativecommons.org/ns#" xmlns:xlink="http://www.w3.org/1999/xlink" viewBox="0 0 28.211963 28.28577" xmlns:dc="http://purl.org/dc/elements/1.1/">
<metadata>
<rdf:RDF>
<cc:Work rdf:about="">
<dc:format>image/svg+xml</dc:format>
<dc:type rdf:resource="http://purl.org/dc/dcmitype/StillImage"/>
</cc:Work>
</rdf:RDF>
</metadata>
<defs>
<linearGradient id="a" y2="306.5" gradientUnits="userSpaceOnUse" x2="677.5" y1="318.5" x1="686.5">
<stop stop-color="#004c91" offset="0"/>
<stop stop-color="#91c5f3" offset="1"/>
</linearGradient>
<linearGradient id="b" y2="297.5" gradientUnits="userSpaceOnUse" x2="664.5" y1="310" x1="675.5">
<stop offset="0"/>
<stop stop-color="#808080" offset="1"/>
</linearGradient>
</defs>
<g fill="none" transform="matrix(.942859 0 0 .942859 -1235.1453 -47.08287)">
<rect height="30" width="29.92172" y="49.93628" x="1310"/>
<g transform="matrix(1.060604,0,0,1.060604,610.0014,-259.457)" stroke="#000" stroke-width=".75">
<path style="color:#000000" fill="url(#b)" d="m669.6914 306.5078-3.0937 3.4922h-4.125l5.7539-6.375-3.1641-6.0703h3.5742l1.8164 3.5508 3.1524-3.5508h4.0898l-5.7773 6.457 3.1406 5.9883h-3.5742l-1.793-3.4922"/>
<path style="color:#000000" fill="url(#a)" d="m677.6619 306.7104h2.1786l0.5484 4.0296c0.1371 1.0359 0.2133 1.7621 0.2285 2.1785 0.2844-0.8277 0.6754-1.7012 1.1731-2.6203l1.9348-3.5878h2.3157l-4.997 8.8818c-0.4113 0.7363-0.7363 1.2518-0.975 1.5463-0.2336 0.2945-0.518 0.5256-0.8531 0.6932-0.3301 0.1676-0.7288 0.2513-1.196 0.2513-0.4621 0-0.9826-0.0813-1.5615-0.2437l0.1904-1.6301c0.2641 0.0762 0.5205 0.1143 0.7694 0.1143 0.6703 0 1.2213-0.5079 1.6529-1.5235l-1.4092-8.0896"/>
<path d="m663.8155 309.4334 4.8692-5.3821m1.9952-2.2535 3.1321-3.6062" stroke="#808080" stroke-linecap="round" stroke-width=".5"/>
<path d="m677.1662 316.7991c0.9055 0 1.4817-0.2881 2.2638-1.6053m1.6464-2.4284 2.9429-5.5154" stroke="#83c3fd" stroke-linecap="round" stroke-width=".5"/>
</g>
</g>
</svg>
